m/z +/- Mass Tolerance;Ionization Mode;Database;Name;ChemSpider ID;Common Name (ChemSpider);Formula;Monoisotopic Mass [Da];Mass Error [mDa];Isotope Distribution Fit (IDF);Spider Hit
323.0196+/-0.001;[M+H]+;HR3.csv;De Novo Formula;n.a.;n.a.;C14H3N6O2Cl1;322.001;-0.601044 ;0.000000;0.000000000000
323.0196+/-0.001;[M+H]+;HR3.csv;De Novo Formula;n.a.;n.a.;C13H7N2O6Cl1;321.999;0.736368 ;0.000000;0.000000000000
323.0196+/-0.001;[M+H]+;HR3.csv;De Novo Formula;n.a.;n.a.;C9H4N10Cl2;322;0.254464 ;0.000000;0.000000000000
323.0196+/-0.001;[M+H]+;HR3.csv;De Novo Formula;n.a.;n.a.;C7H13N4O4Cl3;322;-0.237955 ;0.000000;0.000000000000
323.0196+/-0.001;[M+Na]+;HR3.csv;De Novo Formula;n.a.;n.a.;C25;300;0 ;0.000000;0.000000000000
323.0196+/-0.001;[M+Na]+;HR3.csv;De Novo Formula;n.a.;n.a.;C9N8O5;299.999;0.834864 ;0.000000;0.000000000000
323.0196+/-0.001;[M+Na]+;HR3.csv;De Novo Formula;n.a.;n.a.;C8H5N6O5Cl1;300.001;-0.994967 ;0.000000;0.000000000000
323.0196+/-0.001;[M+Na]+;HR3.csv;De Novo Formula;n.a.;n.a.;C12H16Cl4;300.001;-0.611234 ;0.000000;0.000000000000
