 tobramycin
 Asparenomycin
 3'-Deoxykanamycin B
 Nebramycin factir 6
 neomycin

 OXY

  >  <PUBCHEM_EXT_SUBSTANCE_URL> (109)
 PEG
 FUC
 2-[(3R)-1,4-dioxoniabicyclo[1.1.0]butan-4-yl]ethanol; ethanol
 C21H19NO6

 wrzlpfrimpft
 C00384
 1404-04-2
 kanamycin
acetoacetyl-coenzyme a
 (2r,4ar,5ar,11ar,12as)-8-Amino-2-Hydroxy-4a,5a,9,11,11a,12a-Hexahydro[1,3,2]dioxaphosphinino[4',5':5,6]pyrano[3,2-G]pteridine-10,12(4h,6h)-Dione 2-Oxide

 Seromycin
 BTX
 D-cycloserine
 coformycin
 11033-22-0
