Search_Term;ChemSpiderID;Common_Name;Formula;Monoisotopic_Mass
144-68-3;4444421;Zeaxanthin;C40H56O2;568.42804
62512-97-4;9887971;N-[(2E)-4-(beta-D-Glucopyranosyloxy)-3-methyl-2-buten-1-yl]adenosine;C21H31N5O10;513.207092
51255-96-0;8018607;9-(beta-D-Glucopyranosyl)-N-[(2E)-4-hydroxy-3-methyl-2-buten-1-yl]-9H-purin-6-amine;C16H23N5O6;381.164825
38165-56-9;4952889;7-(beta-D-Glucopyranosyl)-N-[(2E)-4-hydroxy-3-methyl-2-buten-1-yl]-7H-purin-6-amine;C16H23N5O6;381.165008544922
58-86-6;119104;D-Xylopyranose;C5H10O5;150.052826
523-98-8;66054;Xanthosine 5'-phosphate;C10H13N4O9P;364.042023
126-29-4;395237;Violaxanthin;C40H56O4;600.417847
5463-22-9;196834;1,2-Bis(4-hydroxy-3-methoxyphenyl)-1,2-ethanedione;C16H14O6;302.079041
121-34-6;8155;vanillic acid;C8H8O4;168.042252
1976-85-8;1146;Uroporphyrinogen IV;C40H44N4O16;836.275208
57-13-6;1143;Urea;CH4N2O;60.032364
69-93-2;1142;Uric Acid;C5H4N4O3;168.028336
112-37-8;2863;Decanoic acid;C10H20O2;172.146332
58-97-9;5808;Uridine monophosphate;C9H13N2O9P;324.035858
133-89-1;8308;Uridine diphosphate glucose;C15H24N2O17P2;566.054993
2956-16-3;17069;Uridine diphosphategalactose;C15H24N2O17P2;566.054993
58-98-0;5809;uridine 5′-diphosphate;C9H14N2O12P2;404.002197
303-97-9;4444118;ubiquinone-9;C54H82O4;794.621338
51-67-2;5408;Tyramine;C8H11NO;137.084061
61-54-1;1118;Tryptamine;C10H12N2;160.100052
638-53-9;12013;Tridecylic acid;C13H26O2;214.193283
99-20-7;7149;alpha,alpha-Trehalose;C12H22O11;342.116211
1637-39-4;395716;Zeatin;C10H13N5O;219.112015
140-10-3;392447;Cinnamic acid;C9H8O2;148.052429
51-35-4;5605;HYDROXYPROLINE;C5H9NO3;131.058243
470-40-6;390845;Thujopsene;C15H24;204.187805
135-16-0;82572;Tetrahydrofolic acid;C19H23N7O6;445.17099
118-34-3;4475831;Sinapyl alcohol 4-O-glucoside;C17H24O9;372.142029
530-57-4;10289;Syringic acid;C9H10O5;198.052826
134-96-3;8333;Syringaldehyde;C9H10O4;182.057907
14808-79-8;1085;sulfate;O4S;95.952827
57-50-1;5768;Sucrose;C12H22O11;342.116211
110-15-6;1078;Succinic acid;C4H6O4;118.026611
83-48-7;4444352;Stigmasterol;C29H48O;412.370514
57-11-4;5091;Stearic acid;C18H36O2;284.271515
111-02-4;553635;Squalene;C30H50;410.391266
764-22-7;3014;2-Amino-1,3-octadecandiol;C18H39NO2;301.298065
71-44-3;1072;Spermine;C10H26N4;202.215744
124-20-9;1071;spermidine;C7H19N3;145.157898
93-39-0;90069;Skimmin;C15H16O8;324.084503
65207-12-7;16736728;(7S-(7a,8b,12a,13b))-3,8,13,17-Tetrakis(carboxymethyl)-7,8,12,13-tetrahydro-8,13-dimethyl-21H,23H-porphine-2,7,12,18-tetrapropanoic Acid;C42H46N4O16;862.290894
3952-98-5;4576678;sinigrin;C10H16KNO9S2;396.990356
537-33-7;4444145;Sinapyl alcohol;C11H14O4;210.089203
54429-80-0;4484114;S-{(3S,5R)-1-[(2R,3S,4R,5R)-5-(6-Amino-9H-purin-9-yl)-4-hydroxy-3-(phosphonooxy)tetrahydro-2-furanyl]-3,5,9-trihydroxy-8,8-dimethyl-3,5-dioxido-10,14-dioxo-2,4,6-trioxa-11,15-diaza-3lambda~5~,5lambda~ 5~-diphosphaheptadecan-17-yl} (2E)-3-(4-hydroxy-3,5-dimethoxyphenyl)-2-propenethioate (non-preferred name);C32H46N7O20P3S;973.173096
18696-26-9;80576;Sinapic Acid Choline Ester;C16H24NO5;310.164886
530-59-6;553361;Sinapinic acid;C11H12O5;224.068466
138-59-0;8412;Shikimic acid;C7H10O5;174.052826
531-44-2;388609;Scopolin;C16H18O9;354.095093
92-61-5;4444113;Scopoletin;C10H8O4;192.042252
69-72-7;331;Salicylic acid;C7H6O3;138.031693
997-68-2;141086;e-N-(L-Glutar-2-yl)-L-lysine;C11H20N2O6;276.132141
29908-03-0;31983;S-Adenosyl methionine;C15H23N6O5S;399.144501
979-92-0;188;2-Amino-4-({[5-(6-amino-9H-purin-9-yl)-3,4-dihydroxytetrahydro-2-furanyl]methyl}sulfanyl)butanoic acid;C14H20N6O5S;384.122009277344
50-69-1;4470639;Ribose;C5H10O5;150.052826
929083-72-7;17260025;3-Isothiocyanato-4-methoxy-1H-indole;C10H8N2OS;204.036
512-69-6;10102;beta-D-fructofuranosyl D-galactopyranosyl-(1->6)-D-glucopyranoside;C18H32O16;504.169037
89-00-9;1037;Quinolinic acid;C7H5NO4;167.021851
77-95-2;16498843;(1S,3R,4s)-1,3,4,5-Tetrahydroxycyclohexanecarboxylic acid;C7H12O6;192.063385
28638-13-3;13095553;3-[(6-Deoxy-alpha-L-mannopyranosyl)oxy]-2-(3,4-dihydroxyphenyl)-5-hydroxy-4-oxo-4H-chromen-7-yl 6-deoxy-alpha-L-mannopyranoside;C27H30O15;594.15847
117-39-5;4444051;Quercetin;C15H10O7;302.042664
127-17-3;1031;pyruvic acid;C3H4O3;88.016045
98-79-3;7127;L-Pyroglutamic acid;C5H7NO3;129.042587
447-05-2;1026;3,4-pyridinedimethanol, 5-hydroxy-6-methyl-, 3-(dihydrogen phosphate);C8H12NO6P;249.040222
529-96-4;1024;[4-(Aminomethyl)-5-hydroxy-6-methylpyridin-3-yl]methyldihydrogen-phosphat;C8H13N2O5P;248.056213
85-87-0;1023;PYRIDOXAMINE;C8H12N2O2;168.089874
54-47-7;1022;Pyridoxal 5'-phosphate;C8H10NO6P;247.024567
66-72-8;1021;Pyridoxal;C8H9NO3;167.058243
110-60-1;13837702;putrescine;C4H12N2;88.100044
7540-64-9;1012;1-O-[hydroxy(phosphonooxy)phosphoryl]-5-O-phosphonopentofuranose;C5H13O14P3;389.951813
7412-77-3;108741;3,3'-(3,7,12,17-Tetramethyl-8,13-divinyl-5,10,15,20,22,24-hexahydroporphyrin-2,18-diyl)dipropanoic acid;C34H40N4O4;568.304932
553-12-8;10469486;protoporphyrin;C34H34N4O4;562.257996
585-95-5;9136136;1-S-[(1Z,3R)-3-Hydroxy-N-(sulfooxy)-4-pentenimidoyl]-1-thio-beta-D-glucopyranose;C11H19NO10S2;389.045044
57-83-0;5773;Progesterone;C21H30O2;314.224579
487-90-1;995;5-(aminomethyl)-4-(carboxymethyl)-Pyrrole-3-propionic acid;C10H14N2O4;226.095352
4299-57-4;4938558;plastoquinone;C53H80O2;748.615845
150-86-7;4444094;Phytol;C20H40O;296.307922
84-80-0;4447652;Phylloquinone;C31H46O2;450.349792
107-73-3;7598;choline chloride phosphate;C5H15ClNO4P;219.042725
13018-54-7;145893;Phosphoribosyl formamidocarboxamide;C10H15N4O9P;366.057678
1110-99-2;4953665;[(2R,3S,4R,5R)-5-[6-amino-1-[(2R,3R,4S,5R)-3,4-dihydroxy-5-(phosphonooxymethyl)tetrahydrofuran-2-yl]-2H-purin-9-yl]-3,4-dihydroxy-tetrahydrofuran-2-yl]methyl (hydroxy-phosphonooxy-phosphoryl) hydrogen phosphate;C15H27N5O20P4;721.02001953125
156-06-9;972;Phenylpyruvic acid;C9H8O3;164.047348
7028-48-0;7912546;phenylacetaldoxime;C8H9NO;135.06842
1002-84-2;13249;Pentadecanoic acid;C15H30O2;242.224579
134-04-3;60584;3,4',5,7-tetrahydroxy-2-phenylbenzopyrylium chloride;C15H11ClO5;306.02951
79-83-4;6361;D-PANTOTHENIC ACID;C9H17NO5;219.110672
57-10-3;960;palmitic acid;C16H32O2;256.240234
3690-05-9;87267;1,1,2,2-tetramethyldiphosphane 1,2-disulfide;C4H12P2S2;185.985565
7400-08-0;553148;p-coumaric acid;C9H8O3;164.047348
150-13-0;953;4-Aminobenzoic acid;C7H7NO2;137.047684
144-62-7;946;Oxalic acid;C2H2O4;89.995308
73-97-2;1232048;4,5-dihydroorotate;C5H3N2O4;155.009827
112-80-1;393217;Oleic acid;C18H34O2;282.25589
16910-32-0;58745;4alpha,14-dimethyl-5alpha-ergosta-8,24(28)-dien-3beta-ol;C30H50O;426.386169
5147-00-2;4484239;O-Acetylserine;C13H21N2O7PS;380.080719
5502-96-5;110475;1-[(2R,3R,4S,5R)-5-[[[[(2R,3R,4R,5R)-5-(6-aminopurin-9-yl)-3-hydroxy-4-phosphonooxy-tetrahydrofuran-2-yl]methoxy-hydroxy-phosphoryl]oxy-hydroxy-phosphoryl]oxymethyl]-3,4-dihydroxy-tetrahydrofuran-2-yl]pyridin-1-ium-3-carboxylic acid;C21H28N6O18P3;745.066772
59-67-6;913;Niacin;C6H5NO2;123.032028
321-02-8;108822;Nicotinic acid mononucleotide;C11H15NO9P;336.047882
98-92-0;911;Niacinamide;C6H6N2O;122.048012
14660-91-4;4444659;Neoxanthin;C40H56O4;600.417847
5187-84-8;7850861;1-S-[(1Z)-2-(1-Methoxy-1H-indol-3-yl)-N-(sulfooxy)ethanimidoyl]-1-thio-beta-D-glucopyranose;C17H22N2O10S2;478.071990966797
480-41-1;388383;Naringenin;C15H12O5;272.068481
53-84-9;10239196;Nicotinamide adenine dinucleotide;C21H26N7O14P2;662.101868
13184-27-5;273;N-carbamoylaspartic acid;C5H8N2O5;176.04332
544-64-9;4444564;Myristoleic acid;C14H26O2;226.193283
544-63-8;10539;Myristic acid;C14H28O2;228.208923
123-35-3;28993;Myrcene;C10H16;136.125198
87-89-8;6067;L-(+)-Isoleucine;C6H13NO2;131.094635
150-97-0;388367;mevalonic acid;C6H12O4;148.073563
1211-29-6;56176;Methyl (2-pent-2-enyl-3-oxo-1-cyclopentyl)acetate;C13H20O3;224.141251
149-32-6;13835932;tetritol;C4H10O4;122.057907
585-99-9;10974;MELIBIOSE;C12H22O11;342.116211
69-79-4;6019;beta-Maltose;C12H22O11;342.116211
524-14-1;559121;Malonyl CoA;C24H38N7O19P3S;853.115601
502-65-8;394156;Lycopene;C40H56;536.438232
127-40-2;4444655;Lutein;C40H56O2;568.42804
578-86-9;102790;(2S)-7-Hydroxy-2-(4-hydroxyphenyl)-2,3-dihydro-4H-chromen-4-on;C15H12O4;256.073547
557-59-5;10724;Lignoceric acid;C24H48O2;368.365417
480-17-1;64694;Flavan-3,3',4,4',5,7-hexol;C15H14O7;306.073944
143-07-7;3756;Lauric acid;C12H24O2;200.177628
72-18-4;6050;L-(+)-Valine;C5H11NO2;117.078979
60-18-4;1121;tyrosine;C9H11NO3;181.073898
73-22-3;6066;L-Tryptophan ;C11H12N2O2;204.089874
72-19-5;6051;L-(-)-Threonine;C4H9NO3;119.058243
56-45-1;234;beta-Alanine;C3H7NO2;89.047676
147-85-3;594;DL-Proline;C5H9NO2;115.063332
63-91-2;969;DL-Phenylalanine;C9H11NO2;165.078979
70-26-8;6026;L-Ornithine;C5H12N2O2;132.089874
63-68-3;5907;L-(-)-methionine;C5H11NO2S;149.051056
56-87-1;5747;L-(+)-Lysine;C6H14N2O2;146.10553
61-90-5;5880;L-(+)-Leucine;C6H13NO2;131.094635
79-33-4;96860;L-(+)-lactic acid;C3H6O3;90.031693
73-32-5;6067;L-(+)-Isoleucine;C6H13NO2;131.094635
672-15-1;12126;L-Homoserin;C4H9NO3;119.058243
6027-13-0;757;Homocysteine;C4H9NO2S;135.0354
25679-93-0;388515;(2S)-2-Amino-3-(1H-imidazol-4-yl)propyl dihydrogen phosphate;C6H12N3O4P;221.056549
4836-52-6;144886;l-histidinol;C6H11N3O;141.09021
71-00-1;6038;L-Histidine;C6H9N3O2;155.069473
70-18-8;111188;Glutathione;C10H17N3O6S;307.083801
56-85-9;5746;L-(+)-glutamine;C5H10N2O3;146.069138
56-86-0;30572;L-(+)-Glutamic acid;C5H9NO4;147.053162
52153-09-0;1266052;L-GLUCONO-1,5-LACTONE;C6H10O6;178.047745
636-58-8;110467;L-g-Glutamyl-L-cysteine;C8H14N2O5S;250.062347
1668-08-2;588;5-(1,2-dihydroxyethyl)-3,4-dihydroxytetrahydrofuran-2-one;C6H10O6;178.048004150391
2906-39-0;594;DL-Proline;C5H9NO2;115.063332
52-90-4;5653;L-(+)-Cysteine;C3H7NO2S;121.019745
56-88-2;16735760;S-[(2R)-2-Amino-2-carboxyethyl]-D-homocysteine;C7H14N2O4S;222.067429
372-75-8;9367;L-Citrulline;C6H13N3O3;175.095688
56-84-8;5745;L-(+)-Aspartic acid;C4H7NO4;133.037506
2338-03-6;388372;(2S)-2-Amino-4-oxobutanoic acid;C4H7NO3;117.042595
70-47-3;6031;L-(-)-Asparagine;C4H8N2O3;132.053497
53078-86-7;388450;Arogenate;C10H13NO5;227.079376
74-79-3;6082;L-(+)-Arginine;C6H14N4O2;174.111679
56-41-7;5735;L-(+)-Alanine;C3H7NO2;89.047676
22138-53-0;134354;L-homoserine, 4-oxo-O-phosphono-;C4H8NO7P;213.003845
542-32-5;456;Aminoadipic acid;C6H11NO4;161.068802
97-67-6;392248;Maleic acid;C4H4O4;116.010956
38784-79-1;28481780;7-[(6-Deoxy-alpha-L-mannopyranosyl)oxy]-5-hydroxy-2-(4-hydroxyphenyl)-4-oxo-4H-chromen-3-yl beta-D-galactopyranoside;C27H30O15;594.158447
520-18-3;4444395;Kaempferol;C15H10O6;286.047729
482-38-2;4588900;Kaempferitrin;C27H30O14;578.163574
7724-76-7;22815;riboprina;C15H21N5O4;335.159363
83087-94-9;9849735;9-(beta-D-Glucopyranosyl)-N-(3-methyl-2-buten-1-yl)-9H-purin-6-amine;C16H23N5O5;365.169922
358-71-4;1158;3-Methyl-3-buten-1-yltrihydrogen-diphosphat;C5H12O7P2;246.005829
961-29-5;553829;iso-Liquiritigenin;C15H12O4;256.073547
481-14-1;4444703;avenasterol;C29H48O;412.370514
6061-97-8;1161;isocitric acid;C6H8O7;192.027008
4220-97-7;777;2,3-Dihydroxy-3-(1H-indol-3-yl)propyl dihydrogen phosphate;C11H14NO6P;287.055999755859
771-50-6;63063;3-Indolecarboxylic acid;C9H7NO2;161.047684
487-89-8;9838;3-Formylindole;C9H7NO;145.052765
133-32-4;8298;Indole-3-butyric acid;C12H13NO2;203.094635
771-51-7;312357;Indole-3-Acetonitrile;C10H8N2;156.068741
87-51-4;780;Indole-3-acetic acid ;C10H9NO2;175.063324
2776-06-9;388896;N-Hydroxy-2-(1H-indol-3-yl)ethanimine;C10H10N2O;174.079315
131-99-7;8264;Inosinic acid;C10H13N4O8P;348.047089
99979-59-6;770;3-(1H-Imidazol-5-yl)-2-oxopropyl dihydrogen phosphate;C6H9N2O5P;220.024993896484
7783-06-4;391;Hydrogen sulfide;H2S;33.98772
74-90-8;748;hydrogen cyanide;CHN;27.010899
451-13-8;759;Homogentisic acid;C8H8O4;168.042252
505-54-4;10027;hexadecandioic acid;C16H30O4;286.214417
506-46-7;10037;Cerotic acid;C26H52O2;396.396729
506-12-7;10033;Margaric acid;C17H34O2;270.25589
86-01-1;6569;Guanosine triphosphate;C10H16N5O14P3;522.990662
298-12-4;740;Glyoxylic acid;C2H2O3;74.000397
141-46-8;736;Glycolaldehyde;C2H4O2;60.02113
56-40-6;730;Glycine;C2H5NO2;75.032028
17989-41-2;388308;Glyceryl phosphate;C3H9O6P;172.013672
17181-54-3;2431;Glycerophosphoric acid II;C3H9O6P;172.013672
56-81-5;733;Glycerin;C3H8O3;92.04734
591-59-3;709;glyceraldehyde 3-phosphate;C3H7O6P;169.998032
56-82-6;731;Glyceraldehyde;C3H6O3;90.031693
21414-41-5;570930;glucoraphanin;C12H22NO10S3;436.041138
19041-09-9;7827543;1-S-[(1E)-N-(Sulfooxy)-4-pentenimidoyl]-1-thio-beta-D-glucopyranose;C11H19NO9S2;373.05011
21973-56-8;21172823;1-S-{[5-(Methylsulfanyl)pentanoyl](sulfooxy)amino}-1-thiohexopyranose;C12H23NO10S3;437.048004150391
4356-52-9;570890;1-S-[2-(1H-Indol-3-yl)-N-(sulfooxy)ethanimidoyl]-1-thio-beta-D-glucopyranose;C16H20N2O9S2;448.061035
427-77-0;10222078;(1R,4aR,4bR,7R,9aR,10S,10aR)-1-methyl-8-methylidene-13-oxododecahydro-4a,1-(epoxymethano)-7,9a-methanobenzo[a]azulene-10-carboxylic acid;C19H24O4;316.16745
7044-72-6;4444216;(1S,2R,3S,4aR,4bR,7S,9aS,10S,10aR)-2,3,7-trihydroxy-1-methyl-8-methylidene-13-oxododecahydro-4a,1-(epoxymethano)-7,9a-methanobenzo[a]azulene-10-carboxylic acid;C19H24O7;364.152191
51576-08-0;389744;(1alpha,4aalpha,4bbeta,10beta)-7-Hydroxy-1,4a-dimethyl-8-methylenegibbane-1,10-dicarboxylic acid;C20H28O5;348.193665
56978-14-4;4445246;(1R,2R,5R,8R,9S,10R,11R,13R)-13-Hydroxy-11-methyl-6-methylene-16-oxo-15-oxapentacyclo[9.3.2.1~5,8~.0~1,10~.0~2,8~]heptadecane-9-carboxylic acid;C19H24O5;332.162384
561-56-8;4445248;(1R,4aR,4bR,7S,9aS,10S,10aR)-7-hydroxy-1-methyl-8-methylidene-13-oxo-1,4,4b,5,6,7,8,9,10,10a-decahydro-4a,1-(epoxymethano)-7,9a-methanobenzo[a]azulene-10-carboxylic acid;C19H22O5;330.146729
468-44-0;10222155;(1R,2R,5R,8R,9S,10R,11S,12S)-12-Hydroxy-11-methyl-6-methylene-16-oxo-15-oxapentacyclo[9.3.2.1~5,8~.0~1,10~.0~2,8~]heptadecane-9-carboxylic acid;C19H24O5;332.162384
38231-54-8;10222088;5a,8-methano-4,10b-propano-1H-azuleno[1,2-c]pyran-5-carboxylic acid, decahydro-13-hydroxy-4-methyl-7-methylene-3-oxo-, (4S,4aS,5S,5aR,8R,10aR,10bR,13S)-;C20H26O5;346.178009
38076-57-2;391669;(1alpha,2beta,4aalpha,4bbeta,10beta)-4a-formyl-2-hydroxy-1-methyl-8-methylidenegibbane-1,10-dicarboxylic acid;C20H26O6;362.172943
32630-92-5;4445247;(1R,2R,5R,8R,9S,10R,11S,12R,13S)-12,13-Dihydroxy-11-methyl-6-methylene-16-oxo-15-oxapentacyclo[9.3.2.1~5,8~.0~1,10~.0~2,8~]heptadecane-9-carboxylic acid;C19H24O6;348.157288
77-06-5;6223;Gibberellic acid;C19H22O6;346.141632
19427-32-8;391668;(1alpha,4aalpha,4bbeta,10beta)-4a-Formyl-1-methyl-8-methylenegibbane-1,10-dicarboxylic acid;C20H26O5;346.178009
6980-44-5;206768;4,5-Dibromo-2-[(carboxymethyl)sulfanyl]benzoic acid;C9H6Br2O4S;367.835327
18411-79-5;4574148;(1alpha,4aalpha,4bbeta,10beta)-7-hydroxy-1-methyl-8-methylidenegibbane-1,4a,10-tricarboxylic acid;C20H26O7;378.167847
2922-24-9;9058644;(1alpha,2beta,4aalpha,4bbeta,10beta)-2-hydroxy-1-methyl-8-methylidenegibbane-1,4a,10-tricarboxylic acid;C20H26O7;378.167847
19436-07-8;4573560;Gibbane-1-carboxylic acid, 10-formyl-1,4a-dimethyl-8-methylene-, (1alpha,4aalpha,4bbeta,10beta)-;C20H28O3;316.203857
1164-45-0;391664;Gibbane-1,10-dicarboxylic acid, 1,4a-dimethyl-8-methylene-, (1alpha,4aalpha,4bbeta,10beta)-;C20H28O4;332.198761
545-97-1;4444071;(1R,2R,5S,8S,9S,10R,12S)-5,12-Dihydroxy-11-methyl-6-methylene-16-oxo-15-oxapentacyclo[9.3.2.1~5,8~.0~1,10~.0~2,8~]heptadecane-9-carboxylic acid;C19H24O6;348.157288
6699-20-3;394418;geranyl-PP;C20H36O7P2;450.193634
763-10-0;393471;geranyl diphosphate;C10H20O7P2;314.06842
6815-91-4;712;[5-(2-Amino-6-oxo-1,6-dihydro-9H-purin-9-yl)-3,4-dihydroxytetrahydro-2-furanyl]methyl-3,4,5-trihydroxy-6-(hydroxymethyl)tetrahydro-2H-pyran-2-yldihydrogen-diphosphat;C16H25N5O16P2;605.077026367188
15839-70-0;388350;Guanosine diphosphate fucose;C16H25N5O15P2;589.082214
3123-67-9;17372;[(2R,3S,4R,5R)-5-(2-Amino-6-oxo-3,6-dihydro-9H-purin-9-yl)-3,4-dihydroxytetrahydro-2-furanyl]methyl (2R,3S,4S,5S,6R)-3,4,5-trihydroxy-6-(hydroxymethyl)tetrahydro-2H-pyran-2-yl dihydrogen diphosphate ( non-preferred name);C16H25N5O16P2;605.077148
7616-22-0;14266;g-Tokoferol;C28H48O2;416.365417
472-93-5;4444349;gamma-Carotene;C40H56;536.438232
56-12-2;116;gamma-Aminobutyric acid;C4H9NO2;103.063332
16908-86-4;23942476;(1R,2S,3R,4R,5S,6S)-2,3,4,5,6-Pentahydroxycyclohexyl alpha-D-galactopyranoside dihydrate;C12H26O13;378.137329
110-17-8;392248;Maleic acid;C4H4O4;116.010956
142-42-7;4573886;fumarate;C4H2O4;113.996407
57-48-7;388775;beta-D-Fructofuranose;C6H12O6;180.063385
1135-24-6;393368;Ferulic acid;C10H10O4;194.057907
372-97-4;393270;Farnesyl pyrophosphate;C15H28O7P2;382.131012
107-21-1;13835235;Ethylene glycol;C2H6O2;62.036777
74-85-1;6085;ethene;C2H4;28.0313
141-43-5;13835336;Ethanolamine;C2H7NO;61.052765
1758-51-6;84990;erythrose;C4H8O4;120.042259
474-68-0;4446754;(3beta,5alpha)-ergosta-7,24(28)-dien-3-ol;C28H46O;398.355010986328
2300-11-0;391679;(5beta,8alpha,9beta,10alpha)-kaur-16-en-18-ol;C20H32O;288.245331
562-28-7;9077010;(-)-Kaur-16-ene;C20H32;272.250397
21435-01-8;391681;(5beta,7beta,8alpha,9beta,10alpha,13alpha)-7-Hydroxykaur-16-en-18-oic acid;C20H30O3;318.219482
629-96-9;11898;EICOSANOL;C20H42O;298.323578
2196-62-5;388455;[(2R,3S,5R)-3-Hydroxy-5-(5-methyl-2,4-dioxo-3,4-dihydro-1(2H)-pyrimidinyl)tetrahydro-2-furanyl]methyl (3R,4S,5S,6R)-3,4,5-trihydroxy-6-(hydroxymethyl)tetrahydro-2H-pyran-2-yl dihydrogen diphosphate (n on-preferred name);C16H26N2O16P2;564.075745
3625-52-3;18168;Lacceroic acid;C32H64O2;480.490631
358-72-5;627;Dimethylallylpyrophosphate;C5H12O7P2;246.005829
23599-75-9;29696;2-methyl-4-(1H-purin-6-ylamino)butan-1-ol;C10H15N5O;221.127655
82542-92-5;4830475;3,3',3'',3'''-[3,8,13,17-Tetrakis(carboxymethyl)-8,13-dimethyl-7,8,12,13,20,24-hexahydroporphyrin-2,7,12,18-tetrayl]tetrapropanoic acid;C42H48N4O16;864.306519
480-18-2;621332;(-)-taxifolin;C15H12O7;304.058289
5988-19-2;388355;(S)-2,6-Dioxohexahydro-4-pyrimidinecarboxylic acid;C5H6N2O4;158.032761
20574-65-6;108735;dihydroneopterin triphosphate;C9H16N5O13P3;494.995758
1218-98-0;639;2-AMINO-7,8-DIHYDRO-6-(1,2,3-TRIHYDROXYPROPYL)-4(1H)-PTERIDINONE;C9H13N5O4;255.09700012207
16052-12-3;16;2,3-Dihydro-2,6-pyridinedicarboxylic acid;C7H7NO4;169.037994384766
119-13-1;83144;E-Mix D;C27H46O2;402.349792
472-92-4;4904570;delta-carotene;C40H56;536.438232
334-48-5;2863;Decanoic acid;C10H20O2;172.146332
486-66-8;4445025;Daidzein;C15H10O4;254.057907
24218-00-6;110238;1,5-Di-O-phosphono-D-ribulose;C5H12O11P2;309.985474
15421-51-9;10465039;Inositol phosphate;C6H13O9P;260.029724
74465-19-3;196550;1-Chloromethyl-5-nitronaphthalene;C11H8ClNO2;221.024353
85166-31-0;388562;(1R,2R,3S,4R,5R,6S)-3,5,6-Trihydroxy-1,2,4-cyclohexanetriyl tris[dihydrogen (phosphate)];C6H15O15P3;419.962372
3672-15-9;388338;beta-D-mannopyranose 6-(dihydrogen phosphate);C6H13O9P;260.029724
15978-07-1;388412;alpha-D-(+)-mannose-1-phosphate;C6H13O9P;260.029724
69-65-8;6015;D-(-)-Mannitol;C6H14O6;182.079041
473-81-4;732;Glyceric Acid;C3H6O4;106.026611
591-57-1;388314;d-glyceraldehyde 3-phosphate;C3H7O6P;169.998032
56-73-5;388417;6-O-Phosphono-alpha-D-glucopyranose;C6H13O9P;260.029724
492-62-6;71358;.alpha.-D-Glucopyranose;C6H12O6;180.063385
526-95-4;10240;Gluconic acid;C6H12O7;196.058304
685-73-4;76444;D-Galacturonic acid;C6H10O7;194.042648
643-13-0;389526;Embden ester;C6H13O9P;260.029724
488-69-7;9848;Harden-Young ester;C6H14O12P2;339.996063
36244-87-8;389372;(2R,3S)-2,3-Dihydroxy-3-(1H-imidazol-5-yl)propyl dihydrogen phosphate;C6H11N2O6P;238.035477
921-01-7;83819;D-Cysteine;C3H7NO2S;121.019745
85-61-0;79067;Coenzyme A;C21H36N7O16P3S;767.115234
469-39-6;91880;(3beta,4alpha,5alpha,9beta)-4,14-Dimethyl-9,19-cycloergost-24(28)-en-3-ol;C30H50O;426.386169
469-38-5;83157;(3beta,9beta)-9,19-Cyclolanost-24-en-3-ol;C30H50O;426.386169
528-58-5;61546;2-(3,4-dihydroxyphenyl)-3,5,7-trihydroxychromeniumchlorid;C15H11ClO6;322.024414
2624-63-7;315;5,10,15,20,22,24-hexahydro-3,8,13,17-tetramethyl-2,7,12,18-Porphinetetrapropionic acid;C36H44N4O8;660.315918
458-35-5;1266063;Coniferol;C10H12O3;180.078644
531-29-3;4444067;Abietin;C16H22O8;342.13147
458-36-6;4444167;coniferyl aldehyde;C10H10O3;178.062988
1763-10-6;961;S-{1-[5-(6-Amino-9H-purin-9-yl)-4-hydroxy-3-(phosphonooxy)tetrahydro-2-furanyl]-3,5,9-trihydroxy-8,8-dimethyl-3,5-dioxido-10,14-dioxo-2,4,6-trioxa-11,15-diaza-3lambda~5~,5lambda~5~-diphosphaheptadecan -17-yl} hexadecanethioate (non-preferred name);C37H66N7O17P3S;1005.34497070313
77-92-9;305;Citric acid;C6H8O7;192.027008
6236-09-5;1051;2-Deoxy-3-C-methyltetraric acid;C5H8O5;148.03717
32771-64-5;395716;Zeatin;C10H13N5O;219.112015
585-84-2;558863;(Z)-Aconitic Acid;C6H6O6;174.016434
84743-29-3;4471836;(10Z)-10-Pentadecenoic acid;C15H28O2;240.208923
8066-07-7;21172770;5-(4-Hydroxy-2,2,6-trimethyl-7-oxabicyclo[4.1.0]hept-1-yl)-3-methyl-2,4-pentadienal;C15H22O3;250.156997680664
617-12-9;11542;chorismic acid;C10H10O6;226.047745
62-49-7;299;choline;C5H14NO;104.106987
57-88-5;5775;Cholesterol;C27H46O;386.354858
14897-06-4;146273;Magnesium hydrogen 3-[14-ethyl-21-(methoxycarbonyl)-4,8,13,18-tetramethyl-20-oxido-9-vinyl-23,25-didehydro-4,21-dihydro-3H-phorbin-23-id-3-yl]propanoate (1:1:1);C35H34MgN4O5;614.237976
519-62-0;16739843;b-Chlorophyll;C55H70MgN4O6;906.514587
479-61-8;16736115;Chlorophyll a;C55H72MgN4O5;892.535339
897-78-0;1266978;(2E,6E)-2,6-dibenzylidenecyclohexanone;C20H18O;274.135773
30536-48-2;2043138;1-(Diphenylmethyl)-1,4-diazepane;C18H22N2;266.178009033203
80736-41-0;2726;3-Methoxy-17-methyl-7,8-didehydro-4,5-epoxymorphinan-6-ol;C18H21NO3;299.15213
590-55-6;272;Carbamoylphosphate;CH4NO5P;140.982712
124-07-2;370;Octanoic acid;C8H16O2;144.115036
514-78-3;4447582;(7cis,9cis,11cis,13cis)-beta,beta-carotene-4,4'-dione;C40H52O2;564.396729
474-62-4;151215;Campesterol;C28H48O;400.370514
474-60-2;106639;Campestan-3beta-ol;C28H50O;402.386169
53034-79-0;4815347;S-{1-[5-(6-Amino-9H-purin-9-yl)-4-hydroxy-3-(phosphonooxy)tetrahydro-2-furanyl]-3,5,9-trihydroxy-8,8-dimethyl-3,5-dioxido-10,14-dioxo-2,4,6-trioxa-11,15-diaza-3lambda~5~,5lambda~5~-diphosphaheptadecan -17-yl} (2E)-3-(3,4-dihydroxyphenyl)-2-propenethioate (non-preferred name);C30H42N7O19P3S;929.146912
501-16-6;600426;Caffeic acid;C9H8O4;180.042252
462-94-2;13866593;Cadaverine;C5H14N2;102.1157
72962-43-7;103072;Brassinolide;C28H48O6;480.345093
54986-75-3;182958;pyrimido[1,6-a]indole, 7-chloro-1,2,3,4-tetrahydro-2,5-dimethyl-;C13H15ClN2;234.092377
58-85-5;149962;Biotin;C10H16N2O3S;244.088165
148-03-8;5256784;b-Tocopherol;C28H48O2;416.365417
20307-83-9;453379;3-Methylene-6-(6-methyl-5-hepten-2-yl)cyclohexene;C15H24;204.187805
18431-82-8;27047;Spiro[5.5]undec-2-ene, 3,7,7-trimethyl-11-methylene-, (-)-;C15H24;204.187805
7235-40-7;4444129;beta-Carotene;C40H56;536.438232
495-61-4;8279897;l-b-Bisabolene;C15H24;204.187805
107-95-9;234;beta-Alanine;C3H7NO2;89.047676
499-26-3;570883;1-S-[2-Phenyl-N-(sulfooxy)ethanimidoyl]-1-thio-beta-D-glucopyranose;C14H19NO9S2;409.05011
65-85-0;238;Benzoic acid;C7H6O2;122.036781
112-85-6;7923;behenic acid;C22H44O2;340.334137
4837-74-5;106649;(4-Methoxy-1H-indol-3-yl)acetonitrile;C11H10N2O;186.079315
506-30-9;10035;Arachidic acid;C20H40O2;312.302826
118-92-3;222;anthranilic acid;C7H7NO2;137.047684
640-03-9;4444635;Antheraxanthin;C40H56O3;584.422974
7664-41-7;217;Ammonia;H3N;17.026548
59-02-9;14265;Tocopherol;C29H50O2;430.381073
6014-42-2;20171495;6-Deoxy-L-mannosehydrat;C6H14O6;182.078994750977
328-50-7;50;2-Oxoglutaric Acid;C5H6O5;146.02153
7296-15-3;141983;D-(+)-Mannose;C6H12O6;180.063385
59-56-3;58977;Cori ester (alpha-anomer);C6H13O9P;260.029724
2255-14-3;110443;Galactose 1-phosphate;C6H13O9P;260.029724
3646-73-9;2301265;(+)-aldehydo-D-galactose;C6H12O6;180.063385
7488-99-5;3571861;alpha-Carotene;C40H56;536.438232
4484-88-2;96745;2,2,3,3,4,4,5,5,6,6,7,7,8,8,9,9-hexadecafluorononyl acrylate;C12H6F16O2;486.01123
97-59-6;199;Allantoin;C4H6N4O3;158.043991
99-16-1;198;Allantoic acid;C4H8N4O4;176.05455
3031-94-5;58620;AICA ribonucleotide;C9H15N4O8P;338.062744
2140-58-1;15642;[(2R,3S,4R,5R)-5-(6-Amino-9H-purin-9-yl)-3,4-dihydroxytetrahydro-2-furanyl]methyl (2R,3R,4S,5S,6R)-3,4,5-trihydroxy-6-(hydroxymethyl)tetrahydro-2H-pyran-2-yl dihydrogen diphosphate (non-preferred name );C16H25N5O15P2;589.082214
19046-78-7;190;N-[9-(5-O-Phosphonopentofuranosyl)-9H-purin-6-yl]aspartic acid;C14H18N5O11P;463.074005126953
485-84-7;9821;Adenylyl sulfate;C10H14N5O10PS;427.019897
58-61-7;54923;Adenosine;C10H13N5O4;267.096741
72-89-9;392413;Acetyl-CoA;C23H38N7O17P3S;809.125793
1420-36-6;83198;acetoacetyl-CoA;C25H40N7O18P3S;851.136353
6025-53-2;4945213;N-[(2E)-4-Hydroxy-3-methylbut-2-en-1-yl]adenosine;C15H21N5O5;351.153991699219
4033-27-6;89228;7,8-Dihydropteroyl-L-glutamic acid;C19H21N7O6;443.155334
5006-66-6;65756;6-Hydroxyniacin;C6H5NO3;139.026947
75737-41-6;374010;N-(2-Methoxybenzyl)-5H-purin-6-amine;C13H13N5O;255.112015
45267-68-3;23351163;(6Z,9Z)-Octadeca-6,9-dienedioic acid;C18H30O4;310.214417
10074-18-7;141370;N-Glycyl-5-O-phosphono-beta-D-ribofuranosylamine;C7H15N2O8P;286.05661
29611-01-6;570903;1-S-[6-(Methylsulfanyl)-N-(sulfonatooxy)hexanimidoyl]-1-thio-beta-D-glucopyranose;C13H24NO9S3;434.061859
499-37-6;570901;1-S-[6-(Methylsulfinyl)-N-(sulfonatooxy)hexanimidoyl]-1-thio-beta-D-glucopyranose;C13H24NO10S3;450.056793
134-35-0;388371;5-Methyltetrahydrofolate;C20H25N7O6;459.186646
59862-14-5;571228;S-{(3S,5R)-1-[(2R,3S,4R,5R)-5-(6-Amino-9H-purin-9-yl)-4-hydroxy-3-(phosphonooxy)tetrahydro-2-furanyl]-3,5,9-trihydroxy-8,8-dimethyl-3,5-dioxido-10,14-dioxo-2,4,6-trioxa-11,15-diaza-3lambda~5~,5lambda~ 5~-diphosphaheptadecan-17-yl} (2E)-3-(3,4-dihydroxy-5-methoxyphenyl)-2-propenethioate (non-preferred name);C31H44N7O20P3S;959.156982421875
1782-55-4;394087;5-Hydroxyferulic acid;C10H10O5;210.052826
1782-47-4;4445309;5-[(1E)-3-Hydroxy-1-propen-1-yl]-3-methoxy-1,2-benzenediol;C10H12O4;196.073563
106-60-5;134;Aminolevulinic acid;C5H9NO3;131.058243
6538-02-9;4446734;(3b,5a)-Ergostan-3-ol;C28H50O;402.386169
3432-99-3;97272;N-[4-(3-Amino-1-oxo-1,4,5,6,6a,7-hexahydroimidazo[1,5-f]pteridin-8(9H)-yl)benzoyl]-L-glutamic acid;C20H23N7O6;457.17099
17757-07-2;167937;4alpha-Methyl-5alpha-ergosta-8,24(28)-dien-3beta-ol;C29H48O;412.370514
83327-21-3;7851179;1-S-[(1Z)-2-(4-Methoxy-1H-indol-3-yl)-N-(sulfooxy)ethanimidoyl]-1-thio-beta-D-glucopyranose;C17H22N2O10S2;478.071594
626-64-2;11787;4-pyridinol;C5H5NO;95.037117
99-96-7;132;p-carboxyphenol;C7H6O3;138.031693
123-08-0;123;p-formylphenol;C7H6O2;122.036781
2226-71-3;103123;Phosphopantetheine;C11H23N2O7PS;358.096344
407-41-0;62074;O-Phosphonoserine;C3H8NO6P;185.008926
820-11-1;58;2-Phosphoglyceric acid;C3H7O7P;185.99299621582
2464-23-5;96;3-mercapto-pyruvic acid;C3H4O3S;119.987998962402
18944-28-0;27472569;(2R)-2-Amino-1-hydroxy-3-octadecanone hydrochloride (1:1);C18H38ClNO2;335.259094
1553-55-5;392859;(3S,5R,9R,21S)-1-[(2R,3S,4R,5R)-5-(6-Amino-9H-purin-9-yl)-4-hydroxy-3-(phosphonooxy)tetrahydro-2-furanyl]-3,5,9,21-tetrahydroxy-8,8,21-trimethyl-10,14,19-trioxo-2,4,6-trioxa-18-thia-11,15-diaza-3,5-di phosphatricosan-23-oic acid 3,5-dioxide (non-preferred name);C27H44N7O20P3S;911.157471
2627-73-8;141160;(4R,5S,6R)-4,5,6-Trihydroxy-2-oxo-7-(phosphonooxy)heptanoic acid;C7H13O10P;288.024628
482-67-7;9799;5'-O-[Hydroxy(sulfooxy)phosphoryl]adenosine 3'-(dihydrogen phosphate);C10H15N5O13P2S;506.986237
3633-59-8;622;[5-(6-Amino-9H-purin-9-yl)-3,4-dihydroxytetrahydro-2-furanyl]methyl 3-hydroxy-2,2-dimethyl-4-oxo-4-({3-oxo-3-[(2-sulfanylethyl)amino]propyl}amino)butyl dihydrogen diphosphate (non-preferred name);C21H35N7O13P2S;687.148986816406
1449-09-8;196400;6-Tridecanol, 3,9-diethyl-;C17H36O;256.276611
474-63-5;83160;Ergosta-5,24(28)-dien-3.beta.-ol;C28H46O;398.354858
75912-18-4;4472205;24-hydroxytetracosanoic acid;C24H48O3;384.360352
474-40-8;4447663;Sitosterol alpha1;C30H50O;426.386169
506-45-6;4446049;22-hydroxydocosanoic acid;C22H44O3;356.329010009766
62643-46-3;4446046;20-hydroxyicosanoic acid;C20H40O3;328.298004150391
499-30-9;7827541;Gluconasturtiin;C15H21NO9S2;423.065765
583-92-6;460;4-(Methylsulfanyl)-2-oxobutanoic acid;C5H8O3S;148.018997192383
759-05-7;48;alpha-Ketoisovaleric acid;C5H8O3;116.04734
544-57-0;92507;2-HYDROXYTETRACOSANOIC ACID;C24H48O3;384.360352
142-08-5;8537;2-pyridone;C5H5NO;95.037117
149-57-5;370;Octanoic acid;C8H16O2;144.115036
206440-72-4;391470;(2R,3S)-2,3,4-Trihydroxy-3-methylbutyl dihydrogen phosphate;C5H13O7P;216.039886
3672-03-5;213;2-amino-4-hydroxy-6-hydroxymethyl-7,8-dihydropteridine;C7H9N5O2;195.075623
3329-38-2;4895979;(9E)-18-Hydroxy-9-octadecenoic acid;C18H34O3;298.251007080078
506-13-8;10034;16-hydroxypalmitic acid;C16H32O3;272.235138
13920-14-4;4444344;.psi.,.psi.-Carotene, 7,7',8,8',11,11',12,12'-octahydro-;C40H64;544.500793
85551-10-6;4444088;8-{(1S,5S)-4-Oxo-5-[(2Z)-2-penten-1-yl]-2-cyclopenten-1-yl}octanoic acid;C18H28O3;292.203857
3233-90-7;390182;10,16-dihydroxyhexadecanoic acid;C16H32O4;288.230072
112-92-5;7928;Octadecan-1-ol;C18H38O;270.292267
14364-09-1;4444086;1-O-[(2E)-3-(4-Hydroxy-3,5-dimethoxyphenyl)-2-propenoyl]-beta-D-glucopyranose;C17H22O10;386.121307
629-80-1;959;1-hexadecanal;C16H32O;240.245316
22059-21-8;520;1-Amino-1-carboxycyclopropane;C4H7NO2;101.047676
470-82-6;2656;Eucalyptol;C10H18O;154.135757
498-07-7;9587432;1,6-Anhydroglucose;C6H10O5;162.052826
109-76-2;415;1,3-Diaminopropane;C3H10N2;74.084396
446-72-0;4444448;Genistein;C15H10O5;270.052826
2450-31-9;2006683;Tetracosanedioic acid;C24H46O4;398.3396
22513-81-1;308209;1,22-Docosanediol;C22H46O2;342.349792
505-56-6;7923;behenic acid;C22H44O2;340.334137
3155-43-9;454051;1,18-Octadecanediol;C18H38O2;286.28717
7735-42-4;74166;1,16-Hexadecanediol;C16H34O2;258.25589
463-40-1;4444437;Alpha-Linolenic acid;C18H30O2;278.224579
373-49-9;393216;palmitoleic acid;C16H30O2;254.224579
21293-29-8;4444418;Abscisic acid;C15H20O4;264.136169
78-70-6;13849981;Linalool;C10H18O;154.135757
7362-37-0;553361;Sinapinic acid;C11H12O5;224.068466
537-98-4;393368;Ferulic acid;C10H10O4;194.057907
87-44-5;4444848;(-)-beta-caryophyllene;C15H24;204.187805
490-46-0;4444051;Quercetin;C15H10O7;302.042664
83-46-5;192962;beta-Sitosterol;C29H50O;414.386169
57-55-6;13835224;Propylene glycol;C3H8O2;76.052429
62653-85-4;5584839;epi-jasmonic acid;C12H18O3;210.125595
480-20-6;109514;(+)-aromadendrin;C15H12O6;288.063385
154-23-4;8711;D-(+)-Catechin;C15H14O6;290.079041
50-81-7;10189562;Vitamin C;C6H8O6;176.032089
190079-18-6;391473;1-Deoxy-5-O-phosphono-D-xylulose;C5H11O7P;214.024246
Metabolite;19588;6-Chloropicolinic acid;C6H4ClNO2;156.993057
Zeaxanthin;4444421;Zeaxanthin;C40H56O2;568.42804
Zeatin riboside-O-glucoside;9887971;N-[(2E)-4-(beta-D-Glucopyranosyloxy)-3-methyl-2-buten-1-yl]adenosine;C21H31N5O10;513.207092
Zeatin 9-glucoside;8018607;9-(beta-D-Glucopyranosyl)-N-[(2E)-4-hydroxy-3-methyl-2-buten-1-yl]-9H-purin-6-amine;C16H23N5O6;381.164825
Zeatin 7-glucoside;8018607;9-(beta-D-Glucopyranosyl)-N-[(2E)-4-hydroxy-3-methyl-2-buten-1-yl]-9H-purin-6-amine;C16H23N5O6;381.164825
Xylose;559198;aldehydo-D-xylose;C5H10O5;150.052826
Xanthosine 5'-monophosphate;10463791;5'-O-phosphonatoxanthosine;C10H11N4O9P;362.027466
Violaxanthin;395237;Violaxanthin;C40H56O4;600.417847
Vetispiradiene;302137;2-Isopropenyl-6,10-dimethylspiro[4.5]dec-6-ene;C15H24;204.187805
Vanillin;13860434;Vanillin;C8H8O3;152.047348
Vanillic acid;8155;vanillic acid;C8H8O4;168.042252
Uroporphyrinogen III;1146;Uroporphyrinogen IV;C40H44N4O16;836.275208
Urea;1143;Urea;CH4N2O;60.032364
Urate;24785537;2-Hydroxy-6,8-dioxo-6,7,8,9-tetrahydropurine-1,3-diide;C5H4N4O3;168.029434
Undecanoic acid;7888;Undecylic acid;C11H22O2;186.161987
UMP;5808;Uridine monophosphate;C9H13N2O9P;324.035858
UDP-Sulfoquinovose;24785030;[6-({[({[5-(2,4-Dioxo-3,4-dihydro-1(2H)-pyrimidinyl)-3,4-dihydroxytetrahydro-2-furanyl]methoxy}phosphinato)oxy]phosphinato}oxy)-3,4,5-trihydroxytetrahydro-2H-pyran-2-yl]methanesulfonate (non-preferred  name);C15H21N2O19P2S;626.995117
UDP-D-xylose;388324;[(2R,3S,4R)-5-(2,4-Dioxo-3,4-dihydro-1(2H)-pyrimidinyl)-3,4-dihydroxytetrahydro-2-furanyl]methyl (3R,4S,5R)-3,4,5-trihydroxytetrahydro-2H-pyran-2-yl dihydrogen diphosphate (non-preferred name);C14H22N2O16P2;536.044434
UDP-D-glucuronate;16522;(2S,3S,4S,5R,6R)-6-{[{[{[(2R,3S,4R,5R)-5-(2,4-dioxo-3,4-dihydropyrimidin-1(2H)-yl)-3,4-dihydroxytetrahydrofuran-2-yl]methoxy}(hydroxy)phosphoryl]oxy}(hydroxy)phosphoryl]oxy}-3,4,5-trihydroxytetrahydro-2H-pyran-2-carboxylic acid (non-preferred name);C15H22N2O18P2;580.034302
UDP-D-glucose;8308;Uridine diphosphate glucose;C15H24N2O17P2;566.054993
UDP-D-galacturonate;3463752;6-({[({[5-(2,4-Dioxo-3,4-dihydro-1(2H)-pyrimidinyl)-3,4-dihydroxytetrahydro-2-furanyl]methoxy}phosphinato)oxy]phosphinato}oxy)-3,4,5-trihydroxytetrahydro-2H-pyran-2-carboxylate (non-preferred name);C15H19N2O18P2;577.012451
UDP-D-galactose;17069;Uridine diphosphategalactose;C15H24N2O17P2;566.054993
UDP;5809;uridine 5′-diphosphate;C9H14N2O12P2;404.002197
Ubiquinone 9;4444118;ubiquinone-9;C54H82O4;794.621338
Tyramine;5408;Tyramine;C8H11NO;137.084061
Typhasterol;10378882;Typhasterol;C28H48O4;448.355255
Tryptamine;1118;Tryptamine;C10H12N2;160.100052
Tridecanoic acid;12013;Tridecylic acid;C13H26O2;214.193283
Trehalose;7149;alpha,alpha-Trehalose;C12H22O11;342.116211
trans-Zeatin riboside monophosphate;9735808;N-[(2E)-4-Hydroxy-3-methyl-2-buten-1-yl]adenosine 5'-(dihydrogen phosphate);C15H22N5O8P;431.120605
trans-Zeatin;395716;Zeatin;C10H13N5O;219.112015
trans-Cinnamic acid;392447;Cinnamic acid;C9H8O2;148.052429
trans-4-Hydroxy-L-proline;5605;HYDROXYPROLINE;C5H9NO3;131.058243
Thujopsene;390845;Thujopsene;C15H24;204.187805
Tetrahydrofolate;82572;Tetrahydrofolic acid;C19H23N7O6;445.17099
Tetrahomomethionine;21865786;2-Amino-8-(methylsulfanyl)octanoic acid;C9H19NO2S;205.113647
Teasterone;21864885;teasterone;C28H48O4;448.355255
Syringin;23089067;Syringin;C17H24O9;372.142029
Syringic acid;10289;Syringic acid;C9H10O5;198.052826
Syringaldehyde;8333;Syringaldehyde;C9H10O4;182.057907
Sulfate;1085;sulfate;O4S;95.952827
Sucrose;5768;Sucrose;C12H22O11;342.116211
Succinic acid;1078;Succinic acid;C4H6O4;118.026611
Stigmasterol;4444352;Stigmasterol;C29H48O;412.370514
Stearic acid;5091;Stearic acid;C18H36O2;284.271515
Squalene;553635;Squalene;C30H50;410.391266
Sphinganine-1-phosphate;559277;(2S,3R)-2-ammonio-3-hydroxyoctadecyl hydrogen phosphate;C18H40NO5P;381.264404
Sphinganine;82609;(2S,3R)-2-aminooctadecane-1,3-diol;C18H39NO2;301.298065
Spermine;1072;Spermine;C10H26N4;202.215744
Spermidine;1071;spermidine;C7H19N3;145.157898
Skimmin;90069;Skimmin;C15H16O8;324.084503
Sirohydrochlorin;16736728;(7S-(7a,8b,12a,13b))-3,8,13,17-Tetrakis(carboxymethyl)-7,8,12,13-tetrahydro-8,13-dimethyl-21H,23H-porphine-2,7,12,18-tetrapropanoic Acid;C42H46N4O16;862.290894
Siroheme;388435;Iron(2+) (2S,3S,7S,8S)-2,7,13,17-tetrakis(2-carboxyethyl)-3,8,12,18-tetrakis(carboxymethyl)-3,8-dimethyl-7,8-dihydro-2H,3H-porphine-21,23-diide;C42H44FeN4O16;916.210144
Sinigrin;4576678;sinigrin;C10H16KNO9S2;396.990356
Sinapyl alcohol;4444145;Sinapyl alcohol;C11H14O4;210.089203
Sinapoyl-CoA;4484114;S-{(3S,5R)-1-[(2R,3S,4R,5R)-5-(6-Amino-9H-purin-9-yl)-4-hydroxy-3-(phosphonooxy)tetrahydro-2-furanyl]-3,5,9-trihydroxy-8,8-dimethyl-3,5-dioxido-10,14-dioxo-2,4,6-trioxa-11,15-diaza-3lambda~5~,5lambda~ 5~-diphosphaheptadecan-17-yl} (2E)-3-(4-hydroxy-3,5-dimethoxyphenyl)-2-propenethioate (non-preferred name);C32H46N7O20P3S;973.173096
Sinapoyl-(S)-malate;10128116;(2S)-2-{[(2E)-3-(4-Hydroxy-3,5-dimethoxyphenyl)-2-propenoyl]oxy}succinic acid;C15H16O9;340.079010009766
Sinapine;80576;Sinapic Acid Choline Ester;C16H24NO5;310.164886
Sinapic acid;553361;Sinapinic acid;C11H12O5;224.068466
Shikimic acid;8412;Shikimic acid;C7H10O5;174.052826
Scopolin;388609;Scopolin;C16H18O9;354.095093
Scopoletin;4444113;Scopoletin;C10H8O4;192.042252
Salicylic acid;331;Salicylic acid;C7H6O3;138.031693
Saccharopine;141086;e-N-(L-Glutar-2-yl)-L-lysine;C11H20N2O6;276.132141
S-Adenosyl-L-methionine;31983;S-Adenosyl methionine;C15H23N6O5S;399.144501
S-Adenosyl-L-homocysteine;388301;S-Adenosyl-L-homocysteine;C14H20N6O5S;384.121582
Ribose;4470639;Ribose;C5H10O5;150.052826
Rapalexin A;17260025;3-Isothiocyanato-4-methoxy-1H-indole;C10H8N2OS;204.036
Raffinose;388379;Raffinose;C18H32O16;504.169037
Quinolinic acid;1037;Quinolinic acid;C7H5NO4;167.021851
Quinic acid;10246715;D-(−)-Quinic acid;C7H12O6;192.063385
Quercetin 3-O-beta-D-glucopyranosyl-7-O-alpha-L-rhamnopyranoside;4444051;Quercetin;C15H10O7;302.042664
Quercetin 3-O-[6''-O-rhamnosyl)glucoside] 7-O-rhamnoside;4444051;Quercetin;C15H10O7;302.042664
Quercetin 3,7-di-O-alpha-L-rhamnopyranoside;4444051;Quercetin;C15H10O7;302.042664
Quercetin;4444051;Quercetin;C15H10O7;302.042664
Pyruvic acid;1031;pyruvic acid;C3H4O3;88.016045
Pyroglutamic acid;7127;L-Pyroglutamic acid;C5H7NO3;129.042587
Pyridoxine 5-phosphate;1026;3,4-pyridinedimethanol, 5-hydroxy-6-methyl-, 3-(dihydrogen phosphate);C8H12NO6P;249.040222
Pyridoxamine phosphate;1024;[4-(Aminomethyl)-5-hydroxy-6-methylpyridin-3-yl]methyldihydrogen-phosphat;C8H13N2O5P;248.056213
Pyridoxamine;1023;PYRIDOXAMINE;C8H12N2O2;168.089874
Pyridoxal phosphate;1022;Pyridoxal 5'-phosphate;C8H10NO6P;247.024567
Pyridoxal;1021;Pyridoxal;C8H9NO3;167.058243
Putrescine;13837702;putrescine;C4H12N2;88.100044
PRPP;5575;D-Ribofuranose;C5H10O5;150.052826
Protoporphyrinogen IX;108741;3,3'-(3,7,12,17-Tetramethyl-8,13-divinyl-5,10,15,20,22,24-hexahydroporphyrin-2,18-diyl)dipropanoic acid;C34H40N4O4;568.304932
Protoporphyrin IX;10469486;protoporphyrin;C34H34N4O4;562.257996
Progoitrin;9136136;1-S-[(1Z,3R)-3-Hydroxy-N-(sulfooxy)-4-pentenimidoyl]-1-thio-beta-D-glucopyranose;C11H19NO10S2;389.045044
Progesterone;5773;Progesterone;C21H30O2;314.224579
Porphobilinogen;995;5-(aminomethyl)-4-(carboxymethyl)-Pyrrole-3-propionic acid;C10H14N2O4;226.095352
Plastoquinone 9;4938558;plastoquinone;C53H80O2;748.615845
Phytyl diphosphate;25939473;phytyl diphosphate;C20H39O7P2;453.219
Phytol;4444094;Phytol;C20H40O;296.307922
Phylloquinone;4447652;Phylloquinone;C31H46O2;450.349792
Phosphorylcholine;989;Phosphocholine;C5H15NO4P;184.072998046875
Phosphoribosyl-formamido-carboxamide;145893;Phosphoribosyl formamidocarboxamide;C10H15N4O9P;366.057678
Phosphoribosyl-ATP;388848;[(2R,3S,4R)-5-[1-[(3R,4S,5R)-3,4-dihydroxy-5-(phosphonooxymethyl)tetrahydrofuran-2-yl]-6-imino-purin-9-yl]-3,4-dihydroxy-tetrahydrofuran-2-yl]methyl (hydroxy-phosphonooxy-phosphoryl) hydrogen phosphate;C15H25N5O20P4;719.004333
Phosphoribosyl-AMP;983;6-Amino-1,9-bis(5-O-phosphonopentofuranosyl)-9H-purin-1-ium;C15H24N5O14P2;560.078979492188
Phosphate;1032;Phosphate trianion;O4P;94.955063
Phenylpyruvic acid;972;Phenylpyruvic acid;C9H8O3;164.047348
Phenylacetothiohydroximate;2543884;N-Hydroxy-2-phenylethanethioamide;C8H9NOS;167.040482
Phenylacetonitrile;13839308;Benzyl cyanide;C8H7N;117.057846
Phenylacetaldoxime;7912546;phenylacetaldoxime;C8H9NO;135.06842
Peonidin 3-[6-(3-glucosylcaffeyl)glucoside]-5-glucoside;144246;3,4',5,7-tetrahydroxy-3'-methoxy-2-phenylbenzopyrylium chloride;C16H13ClO6;336.04007
Pentahomomethionine;21865787;2-Amino-9-(methylsulfanyl)nonanoic acid;C10H21NO2S;219.129303
Pentadecanoic acid;13249;Pentadecanoic acid;C15H30O2;242.224579
Pelargonidin;389676;Pelargonidin;C15H11O5;271.060089
Pantothenic acid;6361;D-PANTOTHENIC ACID;C9H17NO5;219.110672
Palmitic acid;960;palmitic acid;C16H32O2;256.240234
p-Coumaryl alcohol;87267;1,1,2,2-tetramethyldiphosphane 1,2-disulfide;C4H12P2S2;185.985565
p-Coumaric acid;553148;p-coumaric acid;C9H8O3;164.047348
p-Aminobenzoic acid;953;4-Aminobenzoic acid;C7H7NO2;137.047684
Oxalic acid;946;Oxalic acid;C2H2O4;89.995308
Orotidine 5'-phosphate;141140;orotidine 5′-monophosphate;C10H13N2O11P;368.025696
Orotate;1232048;4,5-dihydroorotate;C5H3N2O4;155.009827
Oleic acid;393217;Oleic acid;C18H34O2;282.25589
Octadecadiene-1,18-diol;11629802;Octadecanedial;C18H34O2;282.25589
Obtusifoliol;570838;Obtusifoliol;C30H50O2;442.381073
O-Phospho-L-homoserine;133252;O-Phosphono-L-homoserine;C4H10NO6P;199.024567
O-Acetyl-L-serine;89874;O-acetyl-L-serine;C5H9NO4;147.053162
Nicotinic acid adenine dinucleotide;145042;1-[(2R,3R,4S,5R)-5-[[[[(2R,3S,4R,5R)-5-(6-aminopurin-9-yl)-3,4-dihydroxy-tetrahydrofuran-2-yl]methoxy-hydroxy-phosphoryl]oxy-hydroxy-phosphoryl]oxymethyl]-3,4-dihydroxy-tetrahydrofuran-2-yl]pyridin-1-ium-3-carboxylate;C21H26N6O15P2;664.09314
Nicotinic acid;913;Niacin;C6H5NO2;123.032028
Nicotinate mononucleotide;108822;Nicotinic acid mononucleotide;C11H15NO9P;336.047882
Nicotinamide;911;Niacinamide;C6H6N2O;122.048012
Neoxanthin;4444659;Neoxanthin;C40H56O4;600.417847
Neoglucobrassicin;7850861;1-S-[(1Z)-2-(1-Methoxy-1H-indol-3-yl)-N-(sulfooxy)ethanimidoyl]-1-thio-beta-D-glucopyranose;C17H22N2O10S2;478.071990966797
Naringenin chalcone;20118053;naringenin chalcone;C30H24O6;480.157012939453
Naringenin;388383;Naringenin;C15H12O5;272.068481
NAD;5681;Nicotinamide adenine dinucleotide;C21H27N7O14P2;663.109131
N-Succinyl-LL-2,6-diaminoheptanedioate;389300;(2S,6S)-2-Amino-6-[(3-carboxypropanoyl)amino]heptanedioic acid;C11H18N2O7;290.111389
N-Succinyl-2-L-amino-6-oxopimelate;389314;(2S)-2-[(3-Carboxypropanoyl)amino]-6-oxoheptanedioic acid;C11H15NO8;289.079773
N-hydroxy tryptamine;10391819;N-Hydroxy-2-(1H-indol-3-yl)ethanamine;C10H12N2O;176.094955
N-Carbamoyl-L-aspartate;84022;Carbamyl-dl-aspartic acid;C5H8N2O5;176.04332
N-(5-Phospho-D-ribosyl)anthranilate;389264;N-(2-Carboxyphenyl)-5-O-phosphono-beta-D-ribofuranosylamine;C12H16NO9P;349.056274
N',N''-Bis(5-hydroxyferuloyl)-N'''-sinapoylspermidine;24785435;(2E)-3-(3,4-Dihydroxy-5-methoxyphenyl)-N-(4-{[(2E)-3-(3,4-dihydroxy-5-methoxyphenyl)-2-propenoyl]amino}butyl)-N-(3-{[(2E)-3-(4-hydroxy-3,5-dimethoxyphenyl)-2-propenoyl]amino}propyl)acrylamide;C38H45N3O12;735.300354
Myristoleic acid;4444564;Myristoleic acid;C14H26O2;226.193283
Myristic acid;10539;Myristic acid;C14H28O2;228.208923
Myrcene;28993;Myrcene;C10H16;136.125198
Myoinositol;10239179;Inositol;C6H12O6;180.063385
Mg-protoporphyrin IX;146295;Magnesium hydrogen 3,3'-(3,7,12,17-tetramethyl-8,13-divinylporphine-21,24-diide-2,18-diyl)dipropanoate (1:2:1);C34H32MgN4O4;584.227417
Mevalonic acid;388367;mevalonic acid;C6H12O4;148.073563
Mevalonate 5-phosphate;463;3-Hydroxy-3-methyl-5-(phosphonooxy)pentanoic acid;C6H13O7P;228.039993286133
Mevalonate 5-diphosphate;388531;5-Diphosphomevalonic acid;C6H14O10P2;308.006226
Methylbenzoate;6883;Methyl benzoate ;C8H8O2;136.052429
Methyl jasmonate;4445210;Methyl {(1R,2R)-3-oxo-2-[(2Z)-2-penten-1-yl]cyclopentyl}acetate;C13H20O3;224.141251
meso-Erythritol;13835932;tetritol;C4H10O4;122.057907
meso-2,6-Diaminoheptanedioate;388416;Diaminopimelic acid;C7H14N2O4;190.095352
Melibiose;17215917;MELIBIOSE;C12H22O11;342.116211
Maltose;6019;beta-Maltose;C12H22O11;342.116211
Malonyl CoA;559121;Malonyl CoA;C24H38N7O19P3S;853.115601
Maleate;4450430;maleate;C4H2O4;113.996002197266
Magnesium protoporphyrin monomethyl ester;389332;Magnesium 7-(2-carboxyethyl)-3-(3-methoxy-3-oxopropyl)-2,8,12,17-tetramethyl-13,18-divinylporphine-21,23-diide;C35H34MgN4O4;598.243042
Lycopene;394156;Lycopene;C40H56;536.438232
Lutein;4444655;Lutein;C40H56O2;568.42804
LL-2,6-Diaminoheptanedioate;388416;Diaminopimelic acid;C7H14N2O4;190.095352
Liquiritigenin;102790;(2S)-7-Hydroxy-2-(4-hydroxyphenyl)-2,3-dihydro-4H-chromen-4-on;C15H12O4;256.073547
Lignoceric acid;10724;Lignoceric acid;C24H48O2;368.365417
Leucocyanidin;64694;Flavan-3,3',4,4',5,7-hexol;C15H14O7;306.073944
Lauric acid;3756;Lauric acid;C12H24O2;200.177628
L-Valine;6050;L-(+)-Valine;C5H11NO2;117.078979
L-Tyrosine;5833;L-(-)-Tyrosine;C9H11NO3;181.073898
L-Tryptophan;6066;L-Tryptophan ;C11H12N2O2;204.089874
L-Threonine;6051;L-(-)-Threonine;C4H9NO3;119.058243
L-Serine;5736;L-(-)-Serine;C3H7NO3;105.042595
L-Proline;128566;L-Proline;C5H9NO2;115.063332
L-Phenylalanine;244665;beta-Phenylalanine;C10H13NO2;179.094635
L-Pantoate;2532948;2,4-Dihydroxy-3,3-dimethylbutanoate;C6H11O4;147.066284
L-Ornithine;6026;L-Ornithine;C5H12N2O2;132.089874
L-Methionine;5907;L-(-)-methionine;C5H11NO2S;149.051056
L-Lysine;5747;L-(+)-Lysine;C6H14N2O2;146.10553
L-Leucine;5880;L-(+)-Leucine;C6H13NO2;131.094635
L-Lactic acid;96860;L-(+)-lactic acid;C3H6O3;90.031693
L-Kynurenine;141580;L-Kynurenine;C10H12N2O3;208.084793
L-isoleucine;6067;L-(+)-Isoleucine;C6H13NO2;131.094635
L-Homoserine;12126;L-Homoserin;C4H9NO3;119.058243
L-Homocysteine;82666;L-homocysteine;C4H9NO2S;135.0354
L-Histidinol phosphate;388515;(2S)-2-Amino-3-(1H-imidazol-4-yl)propyl dihydrogen phosphate;C6H12N3O4P;221.056549
L-Histidinol;144886;l-histidinol;C6H11N3O;141.09021
L-Histidine;6038;L-Histidine;C6H9N3O2;155.069473
L-Histidinal;134549;l-Histidinal;C6H9N3O;139.074554
L-Glutathione;111188;Glutathione;C10H17N3O6S;307.083801
L-Glutamine;5746;L-(+)-glutamine;C5H10N2O3;146.069138
L-Glutamic acid;30572;L-(+)-Glutamic acid;C5H9NO4;147.053162
L-Glutamate 5-semialdehyde;167744;l-Glutamic-gamma-semialdehyde;C5H9NO3;131.058243
L-Glutamate 1-semialdehyde;114525;(4S)-4-Amino-5-oxopentanoic acid;C5H9NO3;131.058243
L-Gluconolactone;6760;D-Glucono-delta-lactone;C6H10O6;178.047745
L-gamma-Glutamyl-L-cysteine;110467;L-g-Glutamyl-L-cysteine;C8H14N2O5S;250.062347
L-Galactono-1,4-lactone;588;5-(1,2-dihydroxyethyl)-3,4-dihydroxytetrahydrofuran-2-one;C6H10O6;178.048004150391
L-Fucose;2299091;Fucose;C6H12O5;164.068466
L-Formylkynurenine;388843;(2S)-2-Amino-4-(2-formamidophenyl)-4-oxobutanoic acid;C11H12N2O4;236.079712
L-delta1-Pyrroline-5-carboxylate;389057;3,4-Dihydro-2H-pyrrole-5-carboxylic acid;C5H7NO2;113.047676
L-Dehydroascorbate;389547;L-threo-2,3-Hexodiulosonic Acid g-Lactone;C6H6O6;174.016434
L-Cysteine;5653;L-(+)-Cysteine;C3H7NO2S;121.019745
L-Cystathionine;388392;L-Cystathionine;C7H14N2O4S;222.067429
L-Citrulline;9367;L-Citrulline;C6H13N3O3;175.095688
L-Aspartic acid;5745;L-(+)-Aspartic acid;C4H7NO4;133.037506
L-Aspartate 4-semialdehyde;388372;(2S)-2-Amino-4-oxobutanoic acid;C4H7NO3;117.042595
L-Asparagine;6031;L-(-)-Asparagine;C4H8N2O3;132.053497
L-Asparaginate;4574302;(S)-2,4-Diamino-4-oxobutanoate;C4H7N2O3;131.046219
L-Arogenate;388450;Arogenate;C10H13NO5;227.079376
L-Arginine;6082;L-(+)-Arginine;C6H14N4O2;174.111679
L-Alanine;5735;L-(+)-Alanine;C3H7NO2;89.047676
L-4-Aspartyl phosphate;134354;L-homoserine, 4-oxo-O-phosphono-;C4H8NO7P;213.003845
L-2-Aminoadipate;10661856;Aminoadipate;C6H9NO4;159.05426
L-(-)-Malic acid;193317;L-(−)-Malic acid;C4H6O5;134.02153
ketopantoic acid;37;4-Hydroxy-3,3-dimethyl-2-oxobutanoic acid;C6H10O4;146.057998657227
Kaempferol 3-gentiobioside-7-rhamnoside;4444395;Kaempferol;C15H10O6;286.047729
Kaempferol 3-galactoside-7-rhamnoside;22912808;5,7-Dihydroxy-2-(4-hydroxyphenyl)-4-oxo-4H-chromen-3-yl 6-deoxy-alpha-L-mannopyranosyl-(1->3)-6-deoxy-alpha-L-mannopyranosyl-(1->6)-beta-D-galactopyranoside;C33H40O19;740.21637
Kaempferol;4444395;Kaempferol;C15H10O6;286.047729
Kaempferitrin;4588900;Kaempferitrin;C27H30O14;578.163574
Isothiocyanate;10445869;isothiocyanate;CNS;57.975693
Isopentenyladenosine;22815;riboprina;C15H21N5O4;335.159363
Isopentenyladenine-9-glucoside;9849735;9-(beta-D-Glucopyranosyl)-N-(3-methyl-2-buten-1-yl)-9H-purin-6-amine;C16H23N5O5;365.169922
Isopentenyladenine;83222;2IP;C10H13N5;203.117096
Isopentenyl diphosphate;13115335;isopentenyl diphosphate;C5H9O7P2;242.984
Isopentenyl adenosine monophosphate;54923;Adenosine;C10H13N5O4;267.096741
Isoliquiritigenin;553829;iso-Liquiritigenin;C15H12O4;256.073547
Isofucosterol;4444703;avenasterol;C29H48O;412.370514
Isocitric acid;1161;isocitric acid;C6H8O7;192.027008
Isochorismate;787;5-((1-Carboxyethenyl)oxy)-6-hydroxy-1,3-cyclohexadiene-1-carboxylic acid;C10H10O6;226.048004150391
Indole-3-glycerol phosphate;777;2,3-Dihydroxy-3-(1H-indol-3-yl)propyl dihydrogen phosphate;C11H14NO6P;287.055999755859
Indole-3-carboxylic acid beta-D-glucopyranosyl ester;2037188;tert-Butyl-(2-aminoethyl)methylcarbamat;C8H18N2O2;174.136826
Indole-3-carboxylic acid;63063;3-Indolecarboxylic acid;C9H7NO2;161.047684
Indole-3-carboxaldehyde;9838;3-Formylindole;C9H7NO;145.052765
Indole-3-butyric acid;8298;Indole-3-butyric acid;C12H13NO2;203.094635
Indole-3-acetonitrile;312357;Indole-3-Acetonitrile;C10H8N2;156.068741
Indole-3-acetic acid;780;Indole-3-acetic acid ;C10H9NO2;175.063324
Indole-3-acetaldoxime;4522197;indole-3-acetaldoxime;C10H10N2O;174.079315
IMP;8264;Inosinic acid;C10H13N4O8P;348.047089
Imidazole acetol phosphate;770;3-(1H-Imidazol-5-yl)-2-oxopropyl dihydrogen phosphate;C6H9N2O5P;220.024993896484
Hydroxymethylbilane;767;Hydroxymethylbilane;C40H46N4O17;854.285767
Hydrogen sulfide;391;Hydrogen sulfide;H2S;33.98772
Hydrocyanic acid;748;hydrogen cyanide;CHN;27.010899
Homogentisate;759;Homogentisic acid;C8H8O4;168.042252
Hexahomomethionine;21865788;2-Amino-10-(methylsulfanyl)decanoic acid;C11H23NO2S;233.144943
Hexadecane-1,16-dioic acid;10027;hexadecandioic acid;C16H30O4;286.214417
Hexacosanoic acid;10037;Cerotic acid;C26H52O2;396.396729
Heptadecanoic acid;10033;Margaric acid;C17H34O2;270.25589
Guanosine triphosphate;6569;Guanosine triphosphate;C10H16N5O14P3;522.990662
Glyoxylic acid;740;Glyoxylic acid;C2H2O3;74.000397
Glycolaldehyde;736;Glycolaldehyde;C2H4O2;60.02113
Glycine;730;Glycine;C2H5NO2;75.032028
Glycerol 3-phosphate;734;Glycerol 3-phosphate;C3H9O6P;172.013672
Glycerol 2-phosphate;2431;Glycerophosphoric acid II;C3H9O6P;172.013672
Glycerol;733;Glycerin;C3H8O3;92.04734
Glyceraldehyde 3-phosphate;709;glyceraldehyde 3-phosphate;C3H7O6P;169.998032
Glyceraldehyde;731;Glyceraldehyde;C3H6O3;90.031693
Glucoraphanin;570930;glucoraphanin;C12H22NO10S3;436.041138
Gluconapin;7827543;1-S-[(1E)-N-(Sulfooxy)-4-pentenimidoyl]-1-thio-beta-D-glucopyranose;C11H19NO9S2;373.05011
Glucoiberin;5034737;1-S-[(1Z)-4-(methylsulfinyl)-N-(sulfooxy)butanimidoyl]-1-thio-beta-D-glucopyranose;C11H21NO10S3;423.032745
Glucoerucin;24607987;1-S-[(1Z)-5-(Methylsulfanyl)-N-(sulfooxy)pentanimidoyl]-1-thiohexopyranose;C12H23NO9S3;421.053497
Glucobrassicin;570890;1-S-[2-(1H-Indol-3-yl)-N-(sulfooxy)ethanimidoyl]-1-thio-beta-D-glucopyranose;C16H20N2O9S2;448.061035
Gibberellin A9;541597;11-Methyl-6-methylene-16-oxo-15-oxapentacyclo[9.3.2.1~5,8~.0~1,10~.0~2,8~]heptadecane-9-carboxylic acid;C19H24O4;316.16745
Gibberellin A8;4444216;(1S,2R,3S,4aR,4bR,7S,9aS,10S,10aR)-2,3,7-trihydroxy-1-methyl-8-methylidene-13-oxododecahydro-4a,1-(epoxymethano)-7,9a-methanobenzo[a]azulene-10-carboxylic acid;C19H24O7;364.152191
Gibberellin A71;6223;Gibberellic acid;C19H22O6;346.141632
Gibberellin A53;389744;(1alpha,4aalpha,4bbeta,10beta)-7-Hydroxy-1,4a-dimethyl-8-methylenegibbane-1,10-dicarboxylic acid;C20H28O5;348.193665
Gibberellin A51;4445246;(1R,2R,5R,8R,9S,10R,11R,13R)-13-Hydroxy-11-methyl-6-methylene-16-oxo-15-oxapentacyclo[9.3.2.1~5,8~.0~1,10~.0~2,8~]heptadecane-9-carboxylic acid;C19H24O5;332.162384
Gibberellin A5;4445248;(1R,4aR,4bR,7S,9aS,10S,10aR)-7-hydroxy-1-methyl-8-methylidene-13-oxo-1,4,4b,5,6,7,8,9,10,10a-decahydro-4a,1-(epoxymethano)-7,9a-methanobenzo[a]azulene-10-carboxylic acid;C19H22O5;330.146729
Gibberellin A44;4573921;(1R,2R,5S,8S,9S,10S,11R)-5-Hydroxy-11-methyl-6-methylene-12-oxo-13-oxapentacyclo[9.3.3.1~5,8~.0~1,10~.0~2,8~]octadecane-9-carboxylic acid;C20H26O5;346.178009
Gibberellin A41;6223;Gibberellic acid;C19H22O6;346.141632
Gibberellin A4;10222155;(1R,2R,5R,8R,9S,10R,11S,12S)-12-Hydroxy-11-methyl-6-methylene-16-oxo-15-oxapentacyclo[9.3.2.1~5,8~.0~1,10~.0~2,8~]heptadecane-9-carboxylic acid;C19H24O5;332.162384
Gibberellin A37;10222088;5a,8-methano-4,10b-propano-1H-azuleno[1,2-c]pyran-5-carboxylic acid, decahydro-13-hydroxy-4-methyl-7-methylene-3-oxo-, (4S,4aS,5S,5aR,8R,10aR,10bR,13S)-;C20H26O5;346.178009
Gibberellin A36;391669;(1alpha,2beta,4aalpha,4bbeta,10beta)-4a-formyl-2-hydroxy-1-methyl-8-methylidenegibbane-1,10-dicarboxylic acid;C20H26O6;362.172943
Gibberellin A34;4445247;(1R,2R,5R,8R,9S,10R,11S,12R,13S)-12,13-Dihydroxy-11-methyl-6-methylene-16-oxo-15-oxapentacyclo[9.3.2.1~5,8~.0~1,10~.0~2,8~]heptadecane-9-carboxylic acid;C19H24O6;348.157288
Gibberellin A3;6223;Gibberellic acid;C19H22O6;346.141632
Gibberellin A29;389746;(1R,2R,5S,9S,10R,11R,13R)-5,13-Dihydroxy-11-methyl-6-methylene-16-oxo-15-oxapentacyclo[9.3.2.1~5,8~.0~1,10~.0~2,8~]heptadecane-9-carboxylic acid;C19H24O6;348.157288
Gibberellin A27;6223;Gibberellic acid;C19H22O6;346.141632
Gibberellin A25;28639068;(1alpha,4aalpha,4bbeta,10beta)-1-Methyl-8-methylenegibbane-1,4a,10-tricarboxylic acid;C20H26O6;362.172943
Gibberellin A24;391668;(1alpha,4aalpha,4bbeta,10beta)-4a-Formyl-1-methyl-8-methylenegibbane-1,10-dicarboxylic acid;C20H26O5;346.178009
Gibberellin A20;20015789;(1R,2R,5S,8S,9S,10R,11R)-5-Hydroxy-11-methyl-6-methylene-16-oxo-15-oxapentacyclo[9.3.2.1~5,8~.0~1,10~.0~2,8~]heptadecane-9-carboxylic acid;C19H24O5;332.162384
Gibberellin A19;4573832;(1alpha,4aalpha,4bbeta,10beta)-4a-Formyl-7-hydroxy-1-methyl-8-methylenegibbane-1,10-dicarboxylic acid;C20H26O6;362.172943
Gibberellin A17;4574148;(1alpha,4aalpha,4bbeta,10beta)-7-hydroxy-1-methyl-8-methylidenegibbane-1,4a,10-tricarboxylic acid;C20H26O7;378.167847
Gibberellin A15;391667;(1alpha,4aalpha,4bbeta,10beta)-4a-(Hydroxymethyl)-1-methyl-8-methylenegibbane-1,10-dicarboxylic acid;C20H28O5;348.193665
Gibberellin A13;9058644;(1alpha,2beta,4aalpha,4bbeta,10beta)-2-hydroxy-1-methyl-8-methylidenegibbane-1,4a,10-tricarboxylic acid;C20H26O7;378.167847
Gibberellin A12 aldehyde;4573560;Gibbane-1-carboxylic acid, 10-formyl-1,4a-dimethyl-8-methylene-, (1alpha,4aalpha,4bbeta,10beta)-;C20H28O3;316.203857
Gibberellin A12;391664;Gibbane-1,10-dicarboxylic acid, 1,4a-dimethyl-8-methylene-, (1alpha,4aalpha,4bbeta,10beta)-;C20H28O4;332.198761
Gibberellin A1;4444071;(1R,2R,5S,8S,9S,10R,12S)-5,12-Dihydroxy-11-methyl-6-methylene-16-oxo-15-oxapentacyclo[9.3.2.1~5,8~.0~1,10~.0~2,8~]heptadecane-9-carboxylic acid;C19H24O6;348.157288
Geranylgeranyl diphosphate;20016452;geranylgeranyl diphosphate;C80H132O7P2;1266.944824
Geranyl diphosphate;393471;geranyl diphosphate;C10H20O7P2;314.06842
GDP-L-galactose;712;[5-(2-Amino-6-oxo-1,6-dihydro-9H-purin-9-yl)-3,4-dihydroxytetrahydro-2-furanyl]methyl-3,4,5-trihydroxy-6-(hydroxymethyl)tetrahydro-2H-pyran-2-yldihydrogen-diphosphat;C16H25N5O16P2;605.077026367188
GDP-L-fucose;388350;Guanosine diphosphate fucose;C16H25N5O15P2;589.082214
GDP-D-mannose;17372;[(2R,3S,4R,5R)-5-(2-Amino-6-oxo-3,6-dihydro-9H-purin-9-yl)-3,4-dihydroxytetrahydro-2-furanyl]methyl (2R,3S,4S,5S,6R)-3,4,5-trihydroxy-6-(hydroxymethyl)tetrahydro-2H-pyran-2-yl dihydrogen diphosphate ( non-preferred name);C16H25N5O16P2;605.077148
GDP-4-dehydro-6-deoxy-D-mannose;388554;[(2R,3S,4R,5R)-5-(2-Amino-6-oxo-3,6-dihydro-9H-purin-9-yl)-3,4-dihydroxytetrahydro-2-furanyl]methyl (2R,3S,4R,6R)-3,4-dihydroxy-6-methyl-5-oxotetrahydro-2H-pyran-2-yl dihydrogen diphosphate (non-prefe rred name);C16H23N5O15P2;587.066589
gamma-Tocopherol;14266;g-Tokoferol;C28H48O2;416.365417
gamma-Carotene;4444349;gamma-Carotene;C40H56;536.438232
gamma-Aminobutyric acid;116;gamma-Aminobutyric acid;C4H9NO2;103.063332
Galactinol;96419;2,3,4,5,6-pentahydroxycyclohexyl hexopyranoside;C12H22O11;342.116211
Fumaric acid;10197150;Fumaric acid;C4H4O4;116.010956
Fumarate;4573886;fumarate;C4H2O4;113.996407
Fructose;5764;keto-D-fructose;C6H12O6;180.063385
Feruloyl-CoA;4444054;S-{1-[(2R,3S,4R,5R)-5-(6-Amino-9H-purin-9-yl)-4-hydroxy-3-(phosphonooxy)tetrahydro-2-furanyl]-3,5,9-trihydroxy-8,8-dimethyl-3,5-dioxido-10,14-dioxo-2,4,6-trioxa-11,15-diaza-3lambda~5~,5lambda~5~-dipho sphaheptadecan-17-yl} (2E)-3-(4-hydroxy-3-methoxyphenyl)-2-propenethioate (non-preferred name);C31H44N7O19P3S;943.162537
Ferulic acid;393368;Ferulic acid;C10H10O4;194.057907
Farnesyl diphosphate;9307839;farnesyl diphosphate;C15H28O7P2;382.131012
Ethylene glycol;13835235;Ethylene glycol;C2H6O2;62.036777
Ethylene;6085;ethene;C2H4;28.0313
Ethanolamine;13835336;Ethanolamine;C2H7NO;61.052765
Erythrose;84990;erythrose;C4H8O4;120.042259
Episterol;4446754;(3beta,5alpha)-ergosta-7,24(28)-dien-3-ol;C28H46O;398.355010986328
ent-Kaurenol;4936682;(5xi,8alpha,9xi,10alpha,13alpha)-Kaur-16-en-18-ol;C20H32O;288.245331
ent-Kaur-16-ene;454172;Kaur-16-ene;C20H32;272.250397
ent-Copalyl diphosphate;4444419;5beta,9alpha,10alpha-labda-8(20),13-dien-15-yl diphosphate;C20H36O7P2;450.193634
ent-7alpha-Hydroxykaur-16-en-19-oic acid;391681;(5beta,7beta,8alpha,9beta,10alpha,13alpha)-7-Hydroxykaur-16-en-18-oic acid;C20H30O3;318.219482
Eicosan-1-ol;11898;EICOSANOL;C20H42O;298.323578
dTDP-L-rhamnose;108806;[(2R,3S,5R)-3-Hydroxy-5-(5-methyl-2,4-dioxo-3,4-dihydro-1(2H)-pyrimidinyl)tetrahydro-2-furanyl]methyl (2R,3R,4R,5R,6S)-3,4,5-trihydroxy-6-methyltetrahydro-2H-pyran-2-yl dihydrogen diphosphate (non-pre ferred name);C16H26N2O15P2;548.080811
dTDP-D-glucose;388455;[(2R,3S,5R)-3-Hydroxy-5-(5-methyl-2,4-dioxo-3,4-dihydro-1(2H)-pyrimidinyl)tetrahydro-2-furanyl]methyl (3R,4S,5S,6R)-3,4,5-trihydroxy-6-(hydroxymethyl)tetrahydro-2H-pyran-2-yl dihydrogen diphosphate (n on-preferred name);C16H26N2O16P2;564.075745
Dotriacontanoic acid;18168;Lacceroic acid;C32H64O2;480.490631
Dimethylallyl diphosphate;13115336;Dimethylallyl pyrophosphate trianion;C5H9O7P2;242.984
Dihydrozeatin riboside-5'-monophosphate;29696;2-methyl-4-(1H-purin-6-ylamino)butan-1-ol;C10H15N5O;221.127655
Dihydrozeatin riboside;8697401;N-(4-Hydroxy-3-methylbutyl)adenosine;C15H23N5O5;353.169922
Dihydrozeatin O-glucoside;24784719;2-Methyl-4-(1H-purin-6-ylamino)butyl hexopyranoside;C16H25N5O6;383.180481
Dihydrozeatin;29696;2-methyl-4-(1H-purin-6-ylamino)butan-1-ol;C10H15N5O;221.127655
Dihydrosirohydrochlorin;4444150;3,3',3'',3'''-[(7S,8S,12S,13S)-3,8,13,17-Tetrakis(carboxymethyl)-8,13-dimethyl-7,8,12,13,20,24-hexahydroporphyrin-2,7,12,18-tetrayl]tetrapropanoic acid;C42H48N4O16;864.306519
Dihydroquercetin;458;3,3',4',5,7-Pentahydroxyflavanone;C15H12O7;304.058289
Dihydroorotate;388355;(S)-2,6-Dioxohexahydro-4-pyrimidinecarboxylic acid;C5H6N2O4;158.032761
Dihydroneopterin triphosphate;108735;dihydroneopterin triphosphate;C9H16N5O13P3;494.995758
Dihydroneopterin;639;2-AMINO-7,8-DIHYDRO-6-(1,2,3-TRIHYDROXYPROPYL)-4(1H)-PTERIDINONE;C9H13N5O4;255.09700012207
Dihydrodipicolinic acid;379273;Dihydrodipicolinic acid;C7H7NO4;169.037506
Dihomomethionine;198597;6-(Methylsulfanyl)norleucine;C7H15NO2S;177.082352
delta-Tocopherol;83144;E-Mix D;C27H46O2;402.349792
delta-Carotene;4904570;delta-carotene;C40H56;536.438232
Decanoic acid;2863;Decanoic acid;C10H20O2;172.146332
Daidzein;4445025;Daidzein;C15H10O4;254.057907
D-Ribulose 1,5-bisphosphate;19951541;D-Ribulose 1,5-bisphosphate;C5H8O11P2;305.95639
D-myo-Inositol 1-phosphate;96903;(2R,3R,5S,6R)-2,3,4,5,6-Pentahydroxycyclohexyl dihydrogen phosphate;C6H13O9P;260.029724
D-myo-Inositol 1,4-bisphosphate;17216032;(1R,2R,3R,4R,5R,6S)-2,3,5,6-Tetrahydroxy-1,4-cyclohexanediyl bis[dihydrogen (phosphate)];C6H14O12P2;339.996063
D-myo-Inositol 1,4,5-triphosphate;388562;(1R,2R,3S,4R,5R,6S)-3,5,6-Trihydroxy-1,2,4-cyclohexanetriyl tris[dihydrogen (phosphate)];C6H15O15P3;419.962372
D-Mannose 6-phosphate;19969422;d-mannose 6-phosphate;C6H11O9P;258.015167
D-Mannose 1-phosphate;388412;alpha-D-(+)-mannose-1-phosphate;C6H13O9P;260.029724
D-Mannitol;6015;D-(-)-Mannitol;C6H14O6;182.079041
D-Glyceric acid;388334;(2R)-2,3-Dihydroxypropanoic acid;C3H6O4;106.026611
D-Glyceraldehyde 3-phosphate;388314;d-glyceraldehyde 3-phosphate;C3H7O6P;169.998032
D-Glucose 6-phosphate;19952394;Glucose 6-phosphate;C6H11O9P;258.015014648438
D-Glucose;96749;D-(+)-Glucose;C6H12O6;180.063385
D-Gluconate;10240;Gluconic acid;C6H12O7;196.058304
D-Galacturonic acid;76444;D-Galacturonic acid;C6H10O7;194.042648
D-Fructose 6-phosphate;19969987;fructose 6-phosphate;C6H11O9P;258.015167
D-Fructose 2,6-bisphosphate;94762;2,6-Di-O-phosphono-beta-D-fructofuranose;C6H14O12P2;339.996063
D-Fructose 1,6-bisphosphate;9848;Harden-Young ester;C6H14O12P2;339.996063
D-Fructose;5764;keto-D-fructose;C6H12O6;180.063385
D-erythro-Imidazolylglycerol phosphate;1032;Phosphate trianion;O4P;94.955063
D-Cysteine;83819;D-Cysteine;C3H7NO2S;121.019745
D-Coenzyme A;2654;Cimetidine;C10H16N6S;252.115707
Cycloeucalenol;91880;(3beta,4alpha,5alpha,9beta)-4,14-Dimethyl-9,19-cycloergost-24(28)-en-3-ol;C30H50O;426.386169
Cycloartenol;83157;(3beta,9beta)-9,19-Cyclolanost-24-en-3-ol;C30H50O;426.386169
Cyanidin 3-sambubioside-5-glucoside;8372743;2-(3,4-Dihydroxyphenyl)-5-(beta-D-glucopyranosyloxy)-7-hydroxy-3-chromeniumyl 2-O-beta-D-xylopyranosyl-beta-D-glucopyranoside;C32H39O20;743.202942
Cyanidin 3-O-[2-O-(2-O-(sinapoyl)-bata-D-xylopyranosyl) 6-O-(4-O-(beta-D-glucopyranosyl)-p-coumaroyl-bata-D-glucopyranoside] 5-O-[6-O-(malonyl) bata-D-glucopyranoside];114193;2-(3,4-Dihydroxyphenyl)-3,5,7-trihydroxychromenium;C15H11O6;287.055023
Cyanidin 3-O-[2''-O-(xylosyl)-6''-O-(p-O-(glucosyl)-p-coumaroyl) glucoside] 5-O-glucoside;114193;2-(3,4-Dihydroxyphenyl)-3,5,7-trihydroxychromenium;C15H11O6;287.055023
Cyanidin 3-O-[2''-O-(xylosyl)-6''-O-(p-coumaroyl) glucoside] 5-O-malonylglucoside;28639084;5-{[6-O-(Carboxylatoacetyl)-beta-D-glucopyranosyl]oxy}-2-(3,4-dihydroxyphenyl)-7-oxido-3-chromeniumyl 6-O-{(2E)-3-[4-(beta-D-glucopyranosyloxy)phenyl]-2-propenoyl}-2-O-beta-D-xylopyranosyl-beta-D-gluc opyranoside;C50H55O30;1135.27832
Cyanidin 3-O-[2''-O-(xylosyl) glucoside] 5-O-(6'''-O-malonyl) glucoside;114193;2-(3,4-Dihydroxyphenyl)-3,5,7-trihydroxychromenium;C15H11O6;287.055023
Cyanidin 3-O-[2''-O-(xylosyl) 6''-O-(p-O-(glucosyl) p-coumaroyl) glucoside] 5-O-[6'''-O-(malonyl) glucoside];28540390;5-{[6-O-(Carboxyacetyl)-beta-D-glucopyranosyl]oxy}-2-(3,4-dihydroxyphenyl)-7-hydroxy-3-chromeniumyl 6-O-{(2E)-3-[4-(beta-D-glucopyranosyloxy)phenyl]-2-propenoyl}-2-O-beta-D-xylopyranosyl-beta-D-glucop yranoside;C50H57O30;1137.292969
Cyanidin 3-O-[2''-O-(2'''-O-(sinapoyl) xylosyl) glucoside] 5-O-glucoside;114193;2-(3,4-Dihydroxyphenyl)-3,5,7-trihydroxychromenium;C15H11O6;287.055023
Cyanidin 3-O-[2''-O-(2'''-O-(sinapoyl) xylosyl) 6''-O-(p-O-(glucosyl) p-coumaroyl) glucoside] 5-O-glucoside;114193;2-(3,4-Dihydroxyphenyl)-3,5,7-trihydroxychromenium;C15H11O6;287.055023
Cyanidin 3-O-[2''-O-(2'''-O-(sinapoyl) xylosyl) 6''-O-(p-coumaroyl) glucoside] 5-O-glucoside;114193;2-(3,4-Dihydroxyphenyl)-3,5,7-trihydroxychromenium;C15H11O6;287.055023
Cyanidin;114193;2-(3,4-Dihydroxyphenyl)-3,5,7-trihydroxychromenium;C15H11O6;287.055023
Coproporphyrinogen III;315;5,10,15,20,22,24-hexahydro-3,8,13,17-tetramethyl-2,7,12,18-Porphinetetrapropionic acid;C36H44N4O8;660.315918
Coniferyl alcohol;1266063;Coniferol;C10H12O3;180.078644
Coniferin;4444067;Abietin;C16H22O8;342.13147
Coniferaldehyde;4444167;coniferyl aldehyde;C10H10O3;178.062988
Coenzyme A;79067;Coenzyme A;C21H36N7O16P3S;767.115234
Citric acid;305;Citric acid;C6H8O7;192.027008
Citramalic acid;1051;2-Deoxy-3-C-methyltetraric acid;C5H8O5;148.03717
cis-Zeatin riboside monophosphate;24784864;N-[(2E)-4-Hydroxy-3-methyl-2-buten-1-yl]-9-(5-O-phosphonatopentofuranosyl)-9H-purin-6-amine;C15H20N5O8P;429.106049
cis-Zeatin;2006347;Zinc acetate dihydrate;C4H10O6Zn;217.976883
cis-Aconitic acid;558863;(Z)-Aconitic Acid;C6H6O6;174.016434
cis-10-Pentadecenoic acid;4471836;(10Z)-10-Pentadecenoic acid;C15H28O2;240.208923
Chorismic acid;11542;chorismic acid;C10H10O6;226.047745
Choline;299;choline;C5H14NO;104.106987
Cholesterol;5775;Cholesterol;C27H46O;386.354858
Chlorophyllide a;146273;Magnesium hydrogen 3-[14-ethyl-21-(methoxycarbonyl)-4,8,13,18-tetramethyl-20-oxido-9-vinyl-23,25-didehydro-4,21-dihydro-3H-phorbin-23-id-3-yl]propanoate (1:1:1);C35H34MgN4O5;614.237976
Chlorophyll b;16739843;b-Chlorophyll;C55H70MgN4O6;906.514587
Chlorophyll a;16736115;Chlorophyll a;C55H72MgN4O5;892.535339
CDP-choline;13207;CDP-choline;C14H26N4O11P2;488.10733
Caulilexin C;2043138;1-(Diphenylmethyl)-1,4-diazepane;C18H22N2;266.178009033203
Cathasterone;24785277;3,22-Dihydroxyergostan-6-one;C28H48O3;432.360352
Castasterone;117794;(2alpha,3alpha,5alpha,22R,23R,24S)-2,3,22,23-Tetrahydroxyergostan-6-one;C28H48O5;464.350189
Carbamoyl phosphate;272;Carbamoylphosphate;CH4NO5P;140.982712
Caprylic acid;370;Octanoic acid;C8H16O2;144.115036
Canthaxanthin;4444639;Canthaxanthin;C40H52O2;564.396729
Campesterol;151215;Campesterol;C28H48O;400.370514
Campestanol;106639;Campestan-3beta-ol;C28H50O;402.386169
Camalexin;552646;Camalexine;C11H8N2S;200.040817
Caffeyl alcohol;2423;3-(3,4-dihydroxyphenyl)acrylic acid;C9H8O4;180.042252
Caffeoyl-CoA;4815347;S-{1-[5-(6-Amino-9H-purin-9-yl)-4-hydroxy-3-(phosphonooxy)tetrahydro-2-furanyl]-3,5,9-trihydroxy-8,8-dimethyl-3,5-dioxido-10,14-dioxo-2,4,6-trioxa-11,15-diaza-3lambda~5~,5lambda~5~-diphosphaheptadecan -17-yl} (2E)-3-(3,4-dihydroxyphenyl)-2-propenethioate (non-preferred name);C30H42N7O19P3S;929.146912
Caffeic aldehyde;391335;Caffeic aldehyde;C9H8O3;164.047348
Caffeic acid;600426;Caffeic acid;C9H8O4;180.042252
Cadaverine;13866593;Cadaverine;C5H14N2;102.1157
Brassitin;8211978;S-methyl (1H-indol-3-ylmethyl)carbamothioate;C11H12N2OS;220.067032
Brassinolide;103072;Brassinolide;C28H48O6;480.345093
Botrydial;161498;Botrydial;C17H26O5;310.178009
Biotin;149962;Biotin;C10H16N2O3S;244.088165
beta-Tocopherol;5256784;b-Tocopherol;C28H48O2;416.365417
beta-Sesquiphellandrene;16737054;b-Sesquiphellandrene;C15H24;204.187805
beta-Chamigrene;27047;Spiro[5.5]undec-2-ene, 3,7,7-trimethyl-11-methylene-, (-)-;C15H24;204.187805
beta-Carotene;4444129;beta-Carotene;C40H56;536.438232
beta-Bisabolene;8279897;l-b-Bisabolene;C15H24;204.187805
beta-Alanine;234;beta-Alanine;C3H7NO2;89.047676
Benzylglucosinolate;7827528;1-S-[(1E)-2-Phenyl-N-(sulfooxy)ethanimidoyl]-1-thio-beta-D-glucopyranose;C14H19NO9S2;409.05011
Benzoic acid;238;Benzoic acid;C7H6O2;122.036781
Behenic acid;7923;behenic acid;C22H44O2;340.334137
Arachidic acid;10035;Arachidic acid;C20H40O2;312.302826
Arabidopside D;28639241;(2S)-3-{[6-O-(alpha-D-Galactopyranosyl)-beta-D-galactopyranosyl]oxy}-1,2-propanediyl bis(8-{4-oxo-5-[(2Z)-2-penten-1-yl]-2-cyclopenten-1-yl}octanoate);C51H80O17;964.539551
Arabidopside B;10192487;Arabidopside B;C45H70O12;802.486755
Arabidopside A;10192486;arabidopside A;C43H66O12;774.455444
Anthranilic acid;222;anthranilic acid;C7H7NO2;137.047684
Antheraxanthin;4444635;Antheraxanthin;C40H56O3;584.422974
Ammonia;217;Ammonia;H3N;17.026548
alpha-Tocopherol;14265;Tocopherol;C29H50O2;430.381073
alpha-L-Rhamnopyranose;388776;6-Deoxy-alpha-L-mannopyranose;C6H12O5;164.068466
alpha-Ketoglutaric acid;50;2-Oxoglutaric Acid;C5H6O5;146.02153
alpha-D-Mannopyranose;161434;alpha-D-mannopyranose;C6H12O6;180.063385
alpha-D-Glucose 1-phosphate;58977;Cori ester (alpha-anomer);C6H13O9P;260.029724
alpha-D-Galactose 1-phosphate;110443;Galactose 1-phosphate;C6H13O9P;260.029724
alpha-D-Galactopyranose;388480;.alpha.-D-Galactopyranose;C6H12O6;180.063385
alpha-Carotene;3571861;alpha-Carotene;C40H56;536.438232
alpha,alpha-Trehalose 6-phosphate;109086;alpha-D-Glucopyranosyl 6-O-phosphono-alpha-D-glucopyranoside;C12H23O14P;422.08255
Allantoin;199;Allantoin;C4H6N4O3;158.043991
Allantoic acid;198;Allantoic acid;C4H8N4O4;176.05455
all-trans-Nonaprenyl diphosphate;4444250;(2E,6E,10E,14E,18E,22E,26E,30E)-3,7,11,15,19,23,27,31,35-Nonamethyl-2,6,10,14,18,22,26,30,34-hexatriacontanonaen-1-yl trihydrogen diphosphate;C45H76O7P2;790.506653
AICAR;16560;Acadesine;C9H14N4O5;258.096405
ADP-D-glucose;24604709;[[(2R,3S,4R,5R)-5-(6-aminopurin-9-yl)-3,4-dihydroxy-tetrahydrofuran-2-yl]methoxy-oxido-phosphoryl] [(2R,3R,4S,5S,6R)-3,4,5-trihydroxy-6-(hydroxymethyl)tetrahydropyran-2-yl] phosphate;C16H23N5O15P2;587.067688
Adenylosuccinate;394323;Adenylsuccinic acid;C14H18N5O11P;463.074036
Adenosine 5'-phosphosulfate;9821;Adenylyl sulfate;C10H14N5O10PS;427.019897
Adenosine;54923;Adenosine;C10H13N5O4;267.096741
Acetyl-CoA;392413;Acetyl-CoA;C23H38N7O17P3S;809.125793
Acetoacetyl-CoA;83198;acetoacetyl-CoA;C25H40N7O18P3S;851.136353
Abscisic acid aldehyde;14797236;(2E,4E)-5-(1-Hydroxy-2,6,6-trimethyl-4-oxo-2-cyclohexen-1-yl)-3-methyl-2,4-pentadienal;C15H20O3;248.141251
9-Ribosyl-trans-zeatin;4945213;N-[(2E)-4-Hydroxy-3-methylbut-2-en-1-yl]adenosine;C15H21N5O5;351.153991699219
9-Octadecene-1,18-diol;29542489;9-Octadecene-1,18-diol;C18H36O2;284.271515
9-Methylthiononanaldoxime;24785710;(1E)-N-Hydroxy-9-(methylsulfanyl)-1-nonanimine;C10H21NOS;203.134384
8-Methylthiooctanaldoxime;24785473;(1E)-N-Hydroxy-8-(methylsulfanyl)-1-octanimine;C9H19NOS;189.118729
8-Methylsulfinyloctyl glucosinolate;24785753;1-S-[(1E)-9-(Methylsulfinyl)-N-(sulfonatooxy)nonanimidoyl]-1-thiohexopyranose;C16H30NO10S3;492.103729
7-Methylthioheptyl glucosinolate;24785318;1-S-[(1E)-8-(Methylsulfanyl)-N-(sulfonatooxy)octanimidoyl]-1-thiohexopyranose;C15H28NO9S3;462.09317
7,9,9'-tri-cis-Neurosporene;26332721;(7cis,9cis,9'cis)-7',8'-Dihydro-psi,psi-carotene;C40H58;538.453857
7,8-Dihydropteroate;4573669;4-{[(2-Amino-4-oxo-1,4,7,8-tetrahydro-6-pteridinyl)methyl]amino}benzoate;C14H13N6O3;313.105469
7,8-Dihydrofolate;89228;7,8-Dihydropteroyl-L-glutamic acid;C19H21N7O6;443.155334
6alpha-Hydroxycampestanol;17221012;(3beta,5alpha,6alpha,24R)-Ergostane-3,6-diol;C28H50O2;418.381073
6-Phospho-D-gluconate;4573614;6-phosphogluconate;C6H12O10P;275.017365
6-Oxocampestanol;21374398;6-oxocampestanol;C28H48O2;416.365417
6-Methylthiohexanaldoxime;24784873;(1E)-N-Hydroxy-6-(methylsulfanyl)-1-hexanimine;C7H15NOS;161.087433
6-Methylsulfinylhexyl glucosinolate;24784958;1-S-[(1E)-7-(Methylsulfinyl)-N-(sulfonatooxy)heptanimidoyl]-1-thiohexopyranose;C14H26NO10S3;464.072418
6-Hydroxynicotinic acid;65756;6-Hydroxyniacin;C6H5NO3;139.026947
6-hydroxyindole-3-carboxylic acid beta-D-glucopyranosyl ester;2037188;tert-Butyl-(2-aminoethyl)methylcarbamat;C8H18N2O2;174.136826
6-hydroxyindole-3-carboxylic acid 6-O-(6'-malonyl)beta-D-glucopyranoside;4144010;2-(4-fluorophenyl)-4-methyl-1,3-thiazole-5-carboxylic acid;C11H8FNO2S;237.02597
6-hydroxyindole-3-carboxylic acd 6-O-beta-D-glucopyranoside;10035;Arachidic acid;C20H40O2;312.302826
6-Deoxotyphasterol;24784690;Ergostane-3,22,23-triol;C28H50O3;434.376007
6-Deoxoteasterone;9319690;(3beta,5alpha,22R,23R,24S)-Ergostane-3,22,23-triol;C28H50O3;434.376007
6-Deoxocathasterone;24784899;Ergostane-3,22-diol;C28H50O2;418.381073
6-Deoxocastasterone;24784881;Ergostane-2,3,22,23-tetrol;C28H50O4;450.370911
6,9-Octadecadienedioic acid;23351163;(6Z,9Z)-Octadeca-6,9-dienedioic acid;C18H30O4;310.214417
5-Phosphoribosylglycineamide;147;N-Glycyl-5-O-phosphonopentofuranosylamine;C7H15N2O8P;286.057006835938
5-Phosphoribosylamine;388939;5-O-Phosphono-beta-D-ribofuranosylamine;C5H12NO7P;229.035141
5-Methylthiopentylglucosinolate;24785396;1-S-[(1Z)-6-(Methylsulfanyl)-N-(sulfonatooxy)hexanimidoyl]-1-thiohexopyranose;C13H24NO9S3;434.061859
5-Methylthiopentyldesulfoglucosinolate;24785633;1-S-[(1Z)-N-Hydroxy-6-(methylsulfanyl)hexanimidoyl]-1-thiohexopyranose;C13H25NO6S2;355.112335
5-Methylthiopentanaldoxime;24785237;(1E)-N-Hydroxy-5-(methylsulfanyl)-1-pentanimine;C6H13NOS;147.071777
5-Methylsulfinylpentyl glucosinolate;24784738;1-S-[(1Z)-6-(Methylsulfinyl)-N-(sulfonatooxy)hexanimidoyl]-1-thiohexopyranose;C13H24NO10S3;450.056793
5-Methylsufinylpentyl nitrile;1363309;3-(2,3-Dioxo-2,3-dihydro-indol-1-yl)-propionitrile;C11H8N2O2;200.058578
5-Methyl-tetrahydrofolate;388371;5-Methyltetrahydrofolate;C20H25N7O6;459.186646
5-Hydroxyferuloyl-CoA;571228;S-{(3S,5R)-1-[(2R,3S,4R,5R)-5-(6-Amino-9H-purin-9-yl)-4-hydroxy-3-(phosphonooxy)tetrahydro-2-furanyl]-3,5,9-trihydroxy-8,8-dimethyl-3,5-dioxido-10,14-dioxo-2,4,6-trioxa-11,15-diaza-3lambda~5~,5lambda~ 5~-diphosphaheptadecan-17-yl} (2E)-3-(3,4-dihydroxy-5-methoxyphenyl)-2-propenethioate (non-preferred name);C31H44N7O20P3S;959.156982421875
5-Hydroxyferulic acid;394087;5-Hydroxyferulic acid;C10H10O5;210.052826
5-Hydroxyconiferyl aldehyde;587865;1-[2-(2-methoxyphenoxy)ethyl]-1H-indole-3-carbaldehyde;C18H17NO3;295.12085
5-Hydroxyconiferyl alcohol;4445309;5-[(1E)-3-Hydroxy-1-propen-1-yl]-3-methoxy-1,2-benzenediol;C10H12O4;196.073563
5-epi-Aristolochene;2150;6-isopropenyl-4,4a-dimethyl-1,2,3,4,4a,5,6,7-octahydronaphthalene;C15H24;204.187805
5-Enolpyruvyl-shikimate 3-phosphate;81;5-[(1-CARBOXYVINYL)OXY]-4-HYDROXY-3-(PHOSPHONOOXY)CYCLOHEX-1-ENE-1-CARBOXYLIC ACID;C10H13O10P;324.024993896484
5-Dehydroepisterol;9069833;5-Dehydroepisterol;C28H44O;396.339203
5-Dehydroavenasterol;10470275;(24E)-Stigmasta-5,7,24(28)-trien-3-ol;C29H46O;410.354858
5-Aminolevulinic acid;134;Aminolevulinic acid;C5H9NO3;131.058243
5-(Methylthio)-2-oxo-pentanoic acid;11290589;5-(Methylsulfanyl)-2-oxopentanoic acid;C6H10O3S;162.035065
5,10-Methylenetetrahydrofolic acid;388320;N-{4-[(6aR)-3-Amino-1-oxo-1,4,5,6,6a,7-hexahydroimidazo[1,5-f]pteridin-8(9H)-yl]benzoyl}glutamic acid;C20H23N7O6;457.17099
4alpha-Methyl-5alpha-ergosta-8,14,24(28)-trien-3beta-ol;391501;4alpha-methyl-5alpha-ergosta-8,14,24(28)-trien-3beta-ol;C29H46O;410.354858
4-Thiazolidinecarboxylic acid;9546;Timonacic;C4H7NO2S;133.019745
4-Methoxyindole-3-carbaldehyde;128988;90734-97-7 [RN];C10H9NO2;175.063324
4-Methoxyglucobrassicin;4816047;1-S-[(1Z)-2-(4-Methoxy-1H-indol-3-yl)-N-(sulfooxy)ethanimidoyl]-1-thiohexopyranose;C17H22N2O10S2;478.071594
4-Hydroxysphinganine;108921;Phytosphingosine;C18H39NO3;317.292999
4-Hydroxypyridine;11787;4-pyridinol;C5H5NO;95.037117
4-Hydroxybutylglucosinolate;24785553;1-S-[(1E)-5-Hydroxy-N-(sulfonatooxy)pentanimidoyl]-1-thiohexopyranose;C11H20NO10S2;390.053406
4-Hydroxybenzoic acid;132;p-carboxyphenol;C7H6O3;138.031693
4-Hydroxybenzaldehyde;123;p-formylphenol;C7H6O2;122.036781
4-Coumaroyl-CoA;4944344;p-Coumaroyl-CoA;C30H42N7O18P3S;913.151978
4-(Cytidine 5'-diphospho)-2-C-methyl-D-erythritol;391471;5'-O-{Hydroxy[(hydroxy{[(2R,3S)-2,3,4-trihydroxy-3-methylbutyl]oxy}phosphoryl)oxy]phosphoryl}cytidine;C14H25N3O14P2;521.081177
4'-Phosphopantetheine;103123;Phosphopantetheine;C11H23N2O7PS;358.096344
3-Phosphoserine;11347750;3-Phosphoserine;C3H8NO6P;185.008926
3-Phosphoglycerate;10669764;3-phosphoglycerate;C3H6O7P;184.985657
3-Mercaptopyruvic acid;96;3-mercapto-pyruvic acid;C3H4O3S;119.987998962402
3-Ketosphinganine;611;2-Amino-1-hydroxy-3-octadecanone;C18H37NO2;299.282012939453
3-Indolylmethylthiohydroximate;24785009;(1E)-2-(1H-Indol-3-yl)ethanehydroximothioate;C10H9N2OS;205.044113
3-Hydroxypropyl glucosinolate;24785062;({[(Z)-(4-Hydroxy-1-{[4,5,6-trihydroxy-3-(hydroxymethyl)tetrahydro-2H-pyran-2-yl]sulfanyl}butylidene)amino]oxy}sulfonyl)oxidanide (non-preferred name);C10H18NO10S2;376.03775
3-Hydroxybutyl nitrile;1363309;3-(2,3-Dioxo-2,3-dihydro-indol-1-yl)-propionitrile;C11H8N2O2;200.058578
3-Hydroxy-3-methylglutaryl CoA;392859;(3S,5R,9R,21S)-1-[(2R,3S,4R,5R)-5-(6-Amino-9H-purin-9-yl)-4-hydroxy-3-(phosphonooxy)tetrahydro-2-furanyl]-3,5,9,21-tetrahydroxy-8,8,21-trimethyl-10,14,19-trioxo-2,4,6-trioxa-18-thia-11,15-diaza-3,5-di phosphatricosan-23-oic acid 3,5-dioxide (non-preferred name);C27H44N7O20P3S;911.157471
3-Deoxy-D-arabino-heptulosonate 7-phosphate;141160;(4R,5S,6R)-4,5,6-Trihydroxy-2-oxo-7-(phosphonooxy)heptanoic acid;C7H13O10P;288.024628
3-Dehydroteasterone;24784807;22,23-Dihydroxyergostane-3,6-dione;C28H46O4;446.3396
3-Dehydro-6-deoxoteasterone;24785650;22,23-Dihydroxyergostan-3-one;C28H48O3;432.360352
3,4-Epithiobutyl nitrile;1363309;3-(2,3-Dioxo-2,3-dihydro-indol-1-yl)-propionitrile;C11H8N2O2;200.058578
3'-phosphoadenosine 5'-phosphosulfate;9799;5'-O-[Hydroxy(sulfooxy)phosphoryl]adenosine 3'-(dihydrogen phosphate);C10H15N5O13P2S;506.986237
3'-Dephospho-CoA;392407;[(2R,3S,4R,5R)-5-(6-Amino-9H-purin-9-yl)-3,4-dihydroxytetrahydro-2-furanyl]methyl (3R)-3-hydroxy-2,2-dimethyl-4-oxo-4-({3-oxo-3-[(2-sulfanylethyl)amino]propyl}amino)butyl dihydrogen diphosphate (non-p referred name);C21H35N7O13P2S;687.148865
26-Hydroxyhexacosanoic acid;4472210;26-hydroxyhexacosanoic acid;C26H52O3;412.391632
25-Hydroxypentacosanoic acid;4144010;2-(4-fluorophenyl)-4-methyl-1,3-thiazole-5-carboxylic acid;C11H8FNO2S;237.02597
24-Methylenelophenol;543176;4-Methylergosta-7,24(28)-dien-3-ol;C29H48O;412.370514
24-Methylene cholesterol;4477873;(3beta,8xi,9xi,14xi,17xi,20xi)-Ergosta-5,24(28)-dien-3-ol;C28H46O;398.355010986328
24-Hydroxytetracosanoic acid;4472205;24-hydroxytetracosanoic acid;C24H48O3;384.360352
24-Ethylidenelophenol;4527121;(24Z)-4-Methylstigmasta-7,24(28)-dien-3-ol;C30H50O;426.386169
23-Hydroxytricosanoic acid;9935141;23-Hydroxytricosanoic acid;C23H46O3;370.344696
22-Hydroxydocosanoic acid;4446049;22-hydroxydocosanoic acid;C22H44O3;356.329010009766
20-Hydroxyeicosanoic acid;4446046;20-hydroxyicosanoic acid;C20H40O3;328.298004150391
2-Thioxo1,3-thiazolidine-4-carboxylic acid;2299167;2-thioxo-4-thiazolidinecarboxylic acid;C4H5NO2S2;162.976166
2-Phospho-4-(cytidine 5'-diphospho)-2-C-methyl-D-erythritol;391472;5'-O-[{[{[(2R,3S)-2,4-Dihydroxy-3-methyl-3-(phosphonooxy)butyl]oxy}(hydroxy)phosphoryl]oxy}(hydroxy)phosphoryl]cytidine;C14H26N3O17P3;601.047485
2-Phenylethylglucosinolate;570928;1-S-[3-Phenyl-N-(sulfonatooxy)propanimidoyl]-1-thio-beta-D-glucopyranose;C15H20NO9S2;422.058502
2-Oxo-9-methylthiononanoic acid;24785504;9-(Methylsulfanyl)-2-oxononanoate;C10H17O3S;217.090393
2-Oxo-8-methylthiooctanoic acid;24785598;8-(Methylsulfanyl)-2-oxooctanoate;C9H15O3S;203.074738
2-Oxo-7-methylthioheptanoic acid;24784713;7-(Methylsulfanyl)-2-oxoheptanoate;C8H13O3S;189.059082
2-Oxo-6-methylthiohexanoic acid;24784858;6-(Methylsulfanyl)-2-oxohexanoate;C7H11O3S;175.043442
2-Oxo-4-(methylthio)butanoic acid;460;4-(Methylsulfanyl)-2-oxobutanoic acid;C5H8O3S;148.018997192383
2-Oxo-10-methylthiodecaonoic acid;4144010;2-(4-fluorophenyl)-4-methyl-1,3-thiazole-5-carboxylic acid;C11H8FNO2S;237.02597
2-O-L-ramnopyranosyl-4-Deoxy-alpha-L-threo-hex-4-enopyranosiduronoic acid;4144010;2-(4-fluorophenyl)-4-methyl-1,3-thiazole-5-carboxylic acid;C11H8FNO2S;237.02597
2-Ketoisovalerate;4375810;2-Oxoisovalerate;C5H7O3;115.04007
2-Hydroxytetracosanoic acid;92507;2-HYDROXYTETRACOSANOIC ACID;C24H48O3;384.360352
2-Hydroxypyridine;8537;2-pyridone;C5H5NO;95.037117
2-Ethylhexanoic acid;8373;2-ethylhexanoic acid;C8H16O2;144.115036
2-C-Methyl-D-erythritol 4-phosphate;10246067;2-C-methylerythritol 4-phosphate;C5H11O7P;214.02533
2-C-Methyl-D-erythritol 2,4-cyclodiphosphate;112576;(6S,7R)-6-(Hydroxymethyl)-6-methyl-1,3,5,2,4-trioxadiphosphocane-2,4,7-triol 2,4-dioxide;C5H12O9P2;277.995667
2-Amino-4-hydroxy-6-(hydroxymethyl)-7,8-dihydropteridine;213;2-amino-4-hydroxy-6-hydroxymethyl-7,8-dihydropteridine;C7H9N5O2;195.075623
2-(Indole-3-yl)-4,5-dihydro-1,3-thiazole-4-carboxylic acid;24785755;2-(1H-Indol-3-yl)-4,5-dihydro-1,3-thiazole-4-carboxylate;C12H9N2O2S;245.039017
2-(7'-Methylthio)heptylmalic acid;24785589;2-Hydroxy-2-[7-(methylsulfanyl)heptyl]succinate;C12H20O5S;276.104248
2-(6'-Methylthio)hexylmalic acid;24785361;2-Hydroxy-2-[6-(methylsulfanyl)hexyl]succinate;C11H18O5S;262.088593
2-(5'-methylthio)pentylmalic acid;24784928;2-Hydroxy-2-[5-(methylsulfanyl)pentyl]succinate;C10H16O5S;248.072937
2-(4'-Methylthio)butylmalic acid;24784695;2-Hydroxy-2-[4-(methylsulfanyl)butyl]succinate;C9H14O5S;234.057297
2-(3'-Methylthio)propylmalic acid;24785708;2-Hydroxy-2-[3-(methylsulfanyl)propyl]succinate;C8H12O5S;220.041641
2-(2'-Methylthio)ethylmalic acid;21865721;2-Hydroxy-2-[2-(methylsulfanyl)ethyl]succinic acid;C7H12O5S;208.040543
2,3,4,5-Tetrahydrodipicolinate;612;(R)-2,3,4,5-tetrahydrodipicolinic acid;C7H9NO4;171.053162
18-Hydroxyoctadecanoic acid;4446042;18-hydroxyoctadecanoic acid;C18H36O3;300.265991210938
18-Hydroxyoctadeca-9Z,12Z-dienoic acid;4144010;2-(4-fluorophenyl)-4-methyl-1,3-thiazole-5-carboxylic acid;C11H8FNO2S;237.02597
18-Hydroxy-9-octadecenoic acid;4895979;(9E)-18-Hydroxy-9-octadecenoic acid;C18H34O3;298.251007080078
16-Hydroxyhexadecanoic acid;10034;16-hydroxypalmitic acid;C16H32O3;272.235138
16-Hydroxy-hexadecanoic acid;10034;16-hydroxypalmitic acid;C16H32O3;272.235138
13S-Hydroperoxy-9Z,11E,15Z-octadecatrienoic acid;4593698;(9Z,11E,13S,15Z)-13-Hydroperoxy-9,11,15-octadecatrienoic acid;C18H30O4;310.213989257813
12-oxo-PDA;4444088;8-{(1S,5S)-4-Oxo-5-[(2Z)-2-penten-1-yl]-2-cyclopenten-1-yl}octanoic acid;C18H28O3;292.203857
10-Formyl-THF;109092;N10-formyl-THF;C20H23N7O7;473.165894
10,16-Dihydroxy-hexadecanoate;24785401;10,16-Dihydroxyhexadecanoate;C16H31O4;287.222778
1-Octadecanol;7928;Octadecan-1-ol;C18H38O;270.292267
1-O-Sinapoyl-beta-D-glucose;4444086;1-O-[(2E)-3-(4-Hydroxy-3,5-dimethoxyphenyl)-2-propenoyl]-beta-D-glucopyranose;C17H22O10;386.121307
1-Methoxyindole-3-carbaldehyde;353308;1-Methoxy-1H-indole-3-carbaldehyde;C10H9NO2;175.063324
1-Methoxyindole 3-carboxylic acid methyl ester;599655;methyl 4-methoxy-1H-indole-2-carboxylate;C11H11NO3;205.073898
1-Hexadecanal;959;1-hexadecanal;C16H32O;240.245316
1-Aminocyclopropane-1-carboxylate;520;1-Amino-1-carboxycyclopropane;C4H7NO2;101.047676
1-(o-Carboxyphenylamino)-1-deoxyribulose-5-phosphate;281;1-[(2-Carboxyphenyl)amino]-1-deoxy-5-O-phosphonopent-2-ulose;C12H16NO9P;349.055999755859
1,8-Cineole;2656;Eucalyptol;C10H18O;154.135757
1,6-Anhydroglucose;9587432;1,6-Anhydroglucose;C6H10O5;162.052826
1,3-Diaminopropane;415;1,3-Diaminopropane;C3H10N2;74.084396
1,3,7-Trihydroxyxanthone;4444954;1,3,7-Trihydroxy-9H-xanthen-9-one;C13H8O5;244.03717
1,24-Tetracosane dioic acid;4144010;2-(4-fluorophenyl)-4-methyl-1,3-thiazole-5-carboxylic acid;C11H8FNO2S;237.02597
1,22-Docosane diol;190585;4-06-00-06111;C21H36O2;320.271515
1,22-Docosane dioic acid;4144010;2-(4-fluorophenyl)-4-methyl-1,3-thiazole-5-carboxylic acid;C11H8FNO2S;237.02597
1,18-Octadecanediol;454051;1,18-Octadecanediol;C18H38O2;286.28717
1,16-Dihydroxyhexadecane;74166;1,16-Hexadecanediol;C16H34O2;258.25589
(Z,Z,Z)-Octadeca-9,12,15-trienoic acid;4444437;Alpha-Linolenic acid;C18H30O2;278.224579
(Z)-Palmitoleic acid;393216;palmitoleic acid;C16H30O2;254.224579
(S)-2,3-Epoxysqualene;4573579;(S)-2,3-epoxysqualene;C30H50O;426.386169
(s)-(+)-Abscisic acid;4444418;Abscisic acid;C15H20O4;264.136169
(R)-linalool;391430;(R)-(–)-Linalool;C10H18O;154.135757
(E)-Sinapic acid;553361;Sinapinic acid;C11H12O5;224.068466
(E)-Ferulic acid;393368;Ferulic acid;C10H10O4;194.057907
(E)-Caryophyllene;4444848;(-)-beta-caryophyllene;C15H24;204.187805
(E)-4-Hydroxy-3-methylbut-2-enyl diphosphate;20481120;1-Hydroxy-2-methyl-2-butenyl 4-diphosphate;C5H10O9P2;275.983001708984
(5alpha,24R)-Ergostan-3-one;17221007;(5alpha,24R)-Ergostan-3-one;C28H48O;400.370514
(24R)-Ergost-4-en-3-one;10160746;(24R)-Ergost-4-en-3-one;C28H46O;398.354858
(22S,24R)-22-Hydroxy-5alpha-ergostan-3-one;26331605;(5alpha,22S,24R)-22-Hydroxyergostan-3-one;C28H48O2;416.365417
(22S,22R)-22-Hydroxyergost-4-en-3-one;24785581;22-Hydroxyergost-4-en-3-one;C28H46O2;414.349792
(22S)-22-Hydroxycampesterol;28533756;(3beta,22S,24R)-Ergost-5-ene-3,22-diol;C28H48O2;416.365417
(-)-Epicatechin;65230;L-Epicatechin;C15H14O6;290.079041
(-)-beta-Sitosterol;192962;beta-Sitosterol;C29H50O;414.386169
(+-)-Propylene glycol;13835224;Propylene glycol;C3H8O2;76.052429
(+)-Epijasmonic acid;4144010;2-(4-fluorophenyl)-4-methyl-1,3-thiazole-5-carboxylic acid;C11H8FNO2S;237.02597
(+)-Dihydrokaempferol;109514;(+)-aromadendrin;C15H12O6;288.063385
(+)-Catechin;8711;D-(+)-Catechin;C15H14O6;290.079041
(+)-Ascorbic acid;10437567;5-(1,2-dihydroxyethyl)-3,4-dihydroxyfuran-2(5H)-one (non-preferred name);C6H8O6;176.032089
(+)-alpha-Barbatene;26332325;(1R,2R,6S,7R)-1,2,6,8-Tetramethyltricyclo[5.3.1.0~2,6~]undec-8-ene;C15H24;204.187805
1-Deoxy-D-xylulose 5-phosphate;10462373;1-deoxy-d-xylulose 5-phosphate;C5H9O7P;212.009689
