‭08-11-7‬
‭100-02-7‬
‭100-21-0‬
‭100-41-4‬
‭100-49-2‬
‭100-51-6‬
‭100-52-7‬
‭100-53-8‬
‭100-66-3‬
‭100-88-9‬
‭100-97-0‬
‭10016-20-3‬
‭10034-96-5‬
‭10034-99-8‬
‭10035-04-8‬
‭10040-45-6‬
‭10043-35-3‬
‭10054-06-5‬
‭1006-23-1‬
‭100643-71-8‬
‭10075-24-8‬
‭10078-25-8‬
‭100986-86-5‬
‭100986-89-8‬
‭101-20-2‬
‭101-26-8‬
‭101-85-9‬
‭101-98-4‬
‭10101-41-4‬
‭10102-17-7‬
‭10102-40-6‬
‭10161-34-9‬
‭101666-68-6‬
‭101831-37-2‬
‭1018676-02-2‬
‭10191-41-0‬
‭101927-24-6‬
‭102-17-0‬
‭102-71-6‬
‭102-76-1‬
‭1022-13-5‬
‭1022-13-5‬
‭10238-21-8‬
‭10246-75-0‬
‭102625-64-9‬
‭1026353-20-7‬
‭102728-64-3‬
‭102767-28-2‬
‭102767-31-7‬
‭10297-73-1‬
‭103-16-2‬
‭103-63-9‬
‭103-79-7‬
‭103-84-4‬
‭103-84-4‬
‭103-90-2‬
‭10310-21-1‬
‭103121-85-3‬
‭103129-58-4‬
‭10347-81-6‬
‭10351-88-9‬
‭103577-40-8‬
‭103577-45-3‬
‭103597-45-1‬
‭103628-46-2‬
‭103628-48-4‬
‭103639-04-9‬
‭103733-40-0‬
‭103733-49-9‬
‭103733-51-3‬
‭103775-14-0‬
‭10381-75-6‬
‭10399-13-0‬
‭104-31-4‬
‭104-76-7‬
‭104010-37-9‬
‭10405-02-4‬
‭1041389-28-9‬
‭10418-03-8‬
‭104227-87-4‬
‭104227-88-5‬
‭104286-02-4‬
‭104344-23-2‬
‭104376-79-6‬
‭104632-28-2‬
‭104872-06-2‬
‭10488-36-5‬
‭105462-23-5‬
‭105816-04-4‬
‭105816-05-5‬
‭105816-06-6‬
‭106-14-9‬
‭106-33-2‬
‭106-47-8‬
‭106-48-9‬
‭106-51-4‬
‭106-70-7‬
‭10605-21-7‬
‭106092-09-5‬
‭106266-06-2‬
‭106308-41-2‬
‭106308-44-5‬
‭106372-55-8‬
‭106447-44-3‬
‭106463-17-6‬
‭106685-40-9‬
‭106685-41-0‬
‭107-21-1‬
‭107-35-7‬
‭107-41-5‬
‭107-43-7‬
‭107-88-0‬
‭107-95-9‬
‭1070-11-7‬
‭107007-95-4‬
‭107007-99-8‬
‭1071-28-9‬
‭107133-36-8‬
‭1071546-52-5‬
‭107257-20-5‬
‭107362-12-9‬
‭1077-28-7‬
‭107793-72-6‬
‭107868-30-4‬
‭107880-74-0‬
‭108-10-1‬
‭108-21-4‬
‭108-32-7‬
‭108-39-4‬
‭108-46-3‬
‭108-78-1‬
‭108-95-2‬
‭108050-54-0‬
‭108605-62-5‬
‭1088-11-5‬
‭108928-81-0‬
‭109-01-3‬
‭109-43-3‬
‭109-60-4‬
‭109-66-0‬
‭109-94-4‬
‭109010-60-8‬
‭1095-90-5‬
‭109518-50-5‬
‭109552-15-0‬
‭109581-93-3‬
‭109648-80-8
‭1097263-60-9‬
‭1098-60-8‬
‭110-15-6‬
‭110-16-7‬
‭110-17-8‬
‭110-19-0‬
‭110-27-0‬
‭110-40-7‬
‭110-42-9‬
‭110-44-1‬
‭110-85-0‬
‭110104-37-5‬
‭11027-63-7‬
‭11041-12-6‬
‭110429-35-1‬
‭1104890-90-5‬
‭1105067-88-6‬
‭11061-68-0‬
‭11061-68-0‬
‭110638-68-1‬
‭1107-26-2‬
‭11070-73-8‬
‭11072-93-8‬
‭110764-35-7‬
‭111-01-3‬
‭111-06-8‬
‭111-11-5‬
‭111-42-2‬
‭111-46-6‬
‭111-82-0‬
‭111-90-0‬
‭1113-83-3‬
‭111406-87-2‬
‭111470-99-6‬
‭1115-70-4‬
‭111664-35-8‬
‭1119-34-2‬
‭112-27-6‬
‭112-38-9‬
‭112-39-0‬
‭112-61-8‬
‭112-62-9‬
‭112-63-0‬
‭112-72-1‬
‭112-80-1‬
‭112-92-5‬
‭112188-16-6‬
‭1122-58-3‬
‭1122-62-9‬
‭112529-15-4‬
‭112773-90-7‬
‭112809-51-5‬
‭112901-68-5‬
‭112901-68-5
‬‭20537-88-6
‭113-18-8‬
‭113-52-0‬
‭113-79-1‬
‭113-92-8‬
‭113-98-4‬
‭1134-47-0‬
‭113427-24-0‬
‭1135-24-6‬
‭113502-52-6‬
‭113507-06-5‬
‭113617-63-3‬
‭113994-41-5
‭114-07-8‬
‭114-80-7‬
‭114176-52-2‬
‭1143-38-0‬
‭1145656-36-5‬
‭1148113-53-4‬
‭115-38-8‬
‭115-67-3‬
‭115074-43-6‬
‭115256-11-6‬
‭115290-81-8‬
‭115436-72-1‬
‭1155-56-2‬
‭1156-19-0‬
‭1159-03-1‬
‭115939-25-8‬
‭115956-13-3‬
‭116-38-1‬
‭116094-23-6‬
‭1172-18-5‬
‭117467-28-4‬
‭1176-08-5‬
‭1177-87-3‬
‭117707-40-1‬
‭117772-70-0‬
‭1179-69-7‬
‭117976-47-3‬
‭117976-89-3‬
‭117977-21-6‬
‭118-08-1‬
‭118-34-3‬
‭118-55-8‬
‭118-56-9‬
‭118-60-5‬
‭118-71-8‬
‭118072-93-8‬
‭118074-07-0‬
‭118175-11-4‬
‭1182-42-9‬
‭118779-53-6‬
‭1188-33-6‬
‭119-36-8‬
‭119018-29-0‬
‭119018-30-3‬
‭119302-91-9‬
‭119413-54-6‬
‭119478-56-7‬
‭119532-26-2‬
‭119637-66-0‬
‭1197-18-8‬
‭1197-21-3‬
‭119812-29-2‬
‭120-14-9‬
‭120-47-8‬
‭120-51-4‬
‭120-83-2‬
‭120-97-8‬
‭120011-70-3
142057-77-0‬
‭120013-39-0‬
‭120013-84-5‬
‭120041-08-9‬
‭120066-54-8‬
‭1202-34-2‬
‭120202-66-6‬
‭120202-71-3‬
‭120279-37-0‬
‭120511-72-0‬
‭120511-73-1‬
‭120962-03-0‬
‭121-00-6‬
‭121-19-7‬
‭121-25-5‬
‭121-30-2‬
‭121-32-4‬
‭121-33-5‬
‭121-33-5‬
‭121-44-8‬
‭121-54-0‬
‭121-57-3‬
‭121-59-5‬
‭121-66-4‬
‭121-75-5‬
‭121-79-9‬
‭1210-35-1‬
‭121021-51-0‬
‭121123-17-9‬
‭12125-02-9‬
‭121268-17-5‬
‭121412-77-9‬
‭121521-90-2‬
‭12167-74-7‬
‭121786-16-1‬
‭1218-34-4‬
‭1218-35-5‬
‭1219-99-4‬
‭12192-57-3‬
‭121961-22-6‬
‭122-11-2‬
‭122-99-6‬
‭1221-56-3‬
‭122111-03-9‬
‭122320-73-4‬
‭1225-55-4‬
‭122647-32-9‬
‭1229-29-4‬
‭1229-35-2‬
‭123-30-8‬
‭123-31-9‬
‭123-51-3‬
‭123-72-8‬
‭123-86-4‬
‭123-95-5‬
‭1231-96-5‬
‭123171-59-5‬
‭123441-03-2‬
‭1235-82-1‬
‭123997-26-2‬
‭124-04-9‬
‭124-07-2‬
‭124-10-7‬
‭124-90-3‬
‭124-94-7‬
‭1246812-40-7‬
‭1246860-65-0‬
‭1247-42-3‬
‭124750-99-8‬
‭124752-25-6‬
‭124832-27-5‬
‭124832-31-1‬
‭125-02-0‬
‭125-24-6‬
‭125-29-1‬
‭125-33-7‬
‭125-40-6‬
‭125-71-3‬
‭125-84-8‬
‭125317-39-7‬
‭125494-59-9‬
‭12584-58-6‬
‭126-07-8‬
‭126-07-8‬
‭126-12-5‬
‭126-14-7‬
‭126247-63-0‬
‭12629-01-5‬
‭1263-89-4‬
‭1263278-77-8‬
‭1263278-80-3‬
‭1264-62-6‬
‭1264-72-8‬
‭12650-69-0‬
‭127-07-1‬
‭127-08-2‬
‭127-09-3‬
‭127-17-3‬
‭127-40-2‬
‭127-47-9‬
‭127-48-0‬
‭127-69-5‬
‭127-71-9‬
‭127-79-7‬
‭127140-69-6‬
‭127472-42-8‬
‭127780-16-9‬
‭128-13-2‬
‭128-37-0‬
‭128-49-4‬
‭128-57-4‬
‭128-62-1‬
‭128173-53-5‬
‭128446-35-5‬
‭128794-94-5‬
‭129-49-7‬
‭129-51-1‬
‭129-77-1‬
‭129083-44-9‬
‭129101-54-8‬
‭129332-29-2‬
‭129453-61-8‬
‭129496-10-2‬
‭129497-78-5‬
‭129618-40-2‬
‭129722-12-9‬
‭129722-25-4‬
‭129970-98-5‬
‭130-26-7‬
‭130-61-0‬
‭130-85-8‬
‭13002-81-8‬
‭130049-82-0‬
‭130061-28-8‬
‭13009-99-9‬
‭13010-47-4‬
‭130209-82-4‬
‭1303996-68-0‬
‭1304-85-4‬
‭1305-62-0‬
‭130693-82-2‬
‭130793-27-0‬
‭130855-30-0‬
‭1309-42-8‬
‭1309-64-4‬
‭130929-57-6‬
‭131-48-6‬
‭131-53-3‬
‭131-57-7‬
‭131069-91-5‬
‭13114-72-2‬
‭13118-11-1‬
‭1314-13-2‬
‭131410-48-5‬
‭13171-18-1‬
‭13182-89-3‬
‭131918-61-1‬
‭132-17-2‬
‭132-20-7‬
‭132-73-0‬
‭132-98-9‬
‭132112-35-7‬
‭132119-11-0‬
‭1323-83-7‬
‭132539-06-1‬
‭132685-02-0‬
‭13292-46-1‬
‭133-67-5‬
‭1330076-52-2‬
‭133107-64-9‬
‭13311-84-7‬
‭13345-51-2‬
‭133481-09-1‬
‭134-03-2‬
‭134-05-4‬
‭134-09-8‬
‭134-31-6‬
‭134-62-3‬
‭134-72-5‬
‭134-80-5‬
‭13412-64-1‬
‭134308-13-7‬
‭13446-34-9‬
‭134566-79-3‬
‭13463-67-7‬
‭134678-17-4‬
‭13492-01-8‬
‭135-02-4‬
‭135-07-9‬
‭135-09-1‬
‭135062-02-1‬
‭13517-23-2‬
‭13523-86-9‬
‭13590-98-2‬
‭136-40-3‬
‭136-47-0‬
‭136-77-6‬
‭13609-67-1‬
‭13614-98-7‬
‭136434-34-9‬
‭136572-09-3‬
‭137-08-6‬
‭137-58-6‬
‭137-66-6‬
‭137234-62-9‬
‭137234-63-0‬
‭13732-69-9‬
‭13755-38-9‬
‭137862-53-4‬
‭137862-87-4‬
‭137863-20-8‬
‭138-14-7‬
‭138-15-8‬
‭138-84-1‬
‭138-92-1‬
‭138199-71-0‬
‭13820-91-2‬
‭13838-16-9‬
‭138402-11-6‬
‭138452-21-8‬
‭138564-59-7‬
‭138729-47-2‬
‭138844-81-2‬
‭138890-62-7‬
‭138982-67-9‬
‭139-05-9‬
‭139-13-9‬
‭139110-80-8‬
‭139122-19-3‬
‭139264-17-8‬
‭139264-24-7‬
‭139264-35-0‬
‭139264-69-0‬
‭1393-48-2‬
‭139306-10-8‬
‭1397-89-3‬
‭13983-13-6‬
‭140-10-3‬
‭140-64-7‬
‭1400-61-9‬
‭1401-55-4‬
‭1401-69-0‬
‭14028-44-5‬
‭1403-17-4‬
‭1404-93-9‬
‭140462-76-6‬
‭1405-10-3‬
‭1405-20-5‬
‭1405-37-4‬
‭1405-41-0‬
‭1405-54-5‬
‭1405-86-3‬
‭1405-87-4‬
‭1405-89-6‬
‭1405-97-6‬
‭140678-14-4‬
‭141-43-5‬
‭141-78-6‬
‭141136-01-8‬
‭141396-28-3‬
‭1415-73-2‬
‭14152-28-4‬
‭14176-50-2‬
‭142-16-5‬
‭142-64-3‬
‭142-82-5‬
‭142-88-1‬
‭142-91-6‬
‭14214-69-8‬
‭14252-80-3
73360-54-0
‭14255-87-9‬
‭142963-60-8‬
‭143-07-7‬
‭143-67-9‬
‭143-74-8‬
‭143388-64-1‬
‭143491-57-0‬
‭144-29-6‬
‭144-55-8‬
‭144-80-9‬
‭144-82-1‬
‭144-83-2‬
‭144-83-2‬
‭144143-96-4‬
‭144598-75-4‬
‭144689-63-4‬
‭144701-48-4‬
‭144750-42-5‬
‭144750-52-7‬
‭144790-28-3‬
‭14484-47-0‬
‭145-42-6‬
‭145040-37-5‬
‭145108-58-3‬
‭145195-63-7‬
‭1452-94-4‬
‭145202-66-0‬
‭14538-56-8‬
‭145546-80-1‬
‭145546-80-1‬
‭145773-22-4‬
‭1458-01-1‬
‭145821-59-6‬
‭14599-46-3‬
‭146-56-5‬
‭14611-52-0‬
‭14639-25-9‬
‭1464-42-2‬
‭14653-77-1‬
‭14685-79-1‬
‭147-24-0‬
‭147-58-0‬
‭147-85-3‬
‭147-94-4‬
‭1471-56-3‬
‭147103-94-4‬
‭1474-78-8‬
‭1476-52-4‬
‭148-68-3‬
‭148-72-1‬
‭148-79-8‬
‭148146-51-4‬
‭14818-35-0‬
‭1482-62-8‬
‭148408-66-6‬
‭14882-18-9‬
‭149-15-5‬
‭149-32-6‬
‭14913-33-8‬
‭1492-18-8‬
‭1492-18-8‬
‭14976-57-9‬
‭149845-06-7‬
‭149881-40-3‬
‭150-13-0‬
‭1501-84-4‬
‭1502-95-0‬
‭150399-21-6‬
‭150727-06-3‬
‭150728-13-5‬
‭1508-65-2‬
‭1508-75-4‬
‭1508-76-5‬
‭151-21-3‬
‭151-67-7‬
‭151-73-5‬
‭151006-14-3‬
‭151213-15-9‬
‭151319-34-5‬
‭151767-02-1‬
‭152-11-4‬
‭152-62-5‬
‭152-72-7‬
‭1524-88-5‬
‭152628-02-9‬
‭153-18-4‬
‭15307-79-6‬
‭15307-81-0‬
‭15308-34-6‬
‭15362-40-0‬
‭154-17-6‬
‭154-23-4‬
‭154-41-6‬
‭154-42-7‬
‭154-68-7‬
‭154-69-8‬
‭154-93-8‬
‭154127-19-2‬
‭154361-50-9‬
‭154476-25-2‬
‭154598-52-4‬
‭155-41-9‬
‭15500-65-9‬
‭15500-66-0‬
‭155172-12-6‬
‭155213-67-5‬
‭155213-67-5‬
‭155633-54-8‬
‭15589-00-1‬
‭156-51-4‬
‭156-54-7‬
‭156-87-6‬
‭15622-65-8‬
‭156339-88-7‬‭
‭156547-62-5‬
‭15663-27-1‬
‭15687-27-1‬
‭15708-41-5‬
‭157212-55-0‬
‭157283-68-6‬
‭15826-37-6‬
‭158401-51-5‬
‭158401-52-6‬
‭158812-85-2‬
‭15883-20-2‬
‭1592-23-0‬
‭159989-64-7
‭160087-98-9‬
‭16051-77-7‬
‭160596-25-8‬
‭16106-20-0‬
‭16150-44-0‬
‭1622-61-3‬
‭1634-04-4‬
‭1639-60-7‬
‭1642-54-2‬
‭164455-27-0‬
‭164579-32-2‬
‭16485-10-2‬
‭1649-18-9‬
‭165450-17-9‬
‭165800-03-3‬
‭16590-41-3‬
‭16595-80-5‬
‭1665-48-1‬
‭16673-34-0‬
‭167105-80-8‬
‭1674-62-0‬
‭168167-42-8‬
‭16830-15-2‬
‭1684-40-8‬
‭168828-90-8‬
‭1693-37-4‬
‭169590-42-5‬
‭16985-05-0‬
‭170570-01-1‬
‭1707-14-8‬
‭170729-80-3‬
‭1713-07-1‬
‭171596-29-5‬
‭171599-83-0‬
‭1716-12-7‬
‭172015-79-1‬
‭1722-62-9‬
‭17230-88-5‬
‭1726-02-9‬
‭172822-29-6‬
‭173174-07-7‬
‭17321-77-6‬
‭173532-15-5‬
‭17407-37-3‬
‭174155-70-5‬
‭174227-14-6‬
‭1744-22-5‬
‭17440-83-4‬
‭174607-68-2‬
‭17465-86-0‬
‭174794-02-6‬
‭17560-51-9‬
‭175865-59-5‬
‭17598-65-1‬
‭176168-78-8‬
‭176219-04-8‬
‭176447-94-2‬
‭1772-03-8‬
‭177472-30-9‬
‭177530-93-7‬
‭178422-42-9‬
‭1786-81-8‬
‭17927-65-0‬
‭1794-55-4‬
‭18016-24-5‬
‭180200-66-2‬
‭18029-54-4‬
‭180683-37-8‬
‭180683-37-8‬
‭1808-12-4‬
‭181183-52-8‬
‭1812-30-2‬
‭181434-85-5‬
‭1820-81-1‬
‭182230-43-9‬
‭1824-74-4‬
‭182410-00-0‬
‭182676-90-0‬
‭1836-62-0‬
‭183814-30-4‬
‭18507-89-6‬
‭18559-94-9‬
‭18641-57-1‬
‭18642-44-9‬
‭18652-93-2‬
‭1866-31-5‬
‭1867-66-9‬
‭186826-86-8‬
‭1873-88-7‬
‭187393-00-6‬
‭188062-50-2‬
‭188062-50-2‬
‭188112-75-6‬
‭1885-48-9‬
‭18910-68-4‬
‭18910-68-4‬
‭18910-70-8‬
‭18917-95-8‬
‭190000-46-5‬
‭190850-50-1‬
‭191217-81-9‬
‭19152-93-3‬
‭191546-96-0‬
‭191546-97-1‬
‭191864-24-1‬
‭19237-84-4‬
‭192725-17-0‬
‭193146-85-9‬
‭19375-89-4‬
‭19387-91-8‬
‭19408-84-5‬
‭19457-55-7‬
‭1948-31-8‬
‭1951-26-4‬
‭1953-04-4
69353-21-5‬
‭195454-31-0‬
‭19554-95-1‬
‭19685-09-7‬
‭19740-72-8‬
‭19767-45-4‬
‭19774-82-4‬
‭19833-96-6‬
‭1985-46-2‬
‭199191-66-7‬
‭2002-29-1‬
‭2011-66-7‬
‭2012-01-07‬
‭202138-50-9‬
‭2022-85-7‬
‭202409-33-4‬
‭20283-92-5‬
‭2030-63-9‬
‭204255-11-8‬
‭2051-78-7‬
‭2051-95-8‬
‭20554-84-1‬
‭2058-46-0‬
‭206184-49-8‬
‭2062-78-4‬
‭2068-78-2‬
‭2068-78-2‬
‭20702-77-6‬
‭2078-54-8‬
‭20830-75-5‬
‭20880-92-6‬
‭20902-45-8‬
‭209414-27-7‬
‭211364-69-1‬
‭21165-77-5‬
‭21245-02-3‬
‭21256-18-8‬
‭21409-26-7‬
‭21436-98-6‬
‭21472-33-3‬
‭2152-44-5‬
‭21645-51-2‬
‭216868-57-4‬
‭2170-37-8‬
‭217087-09-7‬
‭21737-58-6‬
‭217448-86-7‬
‭217636-48-1‬
‭2179-57-9‬
‭21829-25-4‬
‭21898-19-1‬
‭2190-15-0‬
‭2190-21-8‬
‭2192-20-3‬
‭219861-08-2‬
‭219861-53-7‬
‭220182-19-4‬
‭22059-60-5‬
‭22071-15-4‬
‭221176-49-4‬
‭221264-21-7‬
‭2214-72-4‬
‭2216-51-5‬
‭22189-32-8‬
‭22195-34-2‬
‭22199-08-2‬
‭22204-24-6‬
‭22204-53-1‬
‭22232-71-9‬
‭22252-43-3‬
‭22260-51-1‬
‭222838-60-0‬
‭22298-29-9‬
‭22321-23-9‬
‭22373-78-0‬
‭2240-28-0‬
‭22407-20-1‬
‭22467-07-8‬
‭22494-42-4‬
‭2259-96-3‬
‭22594-61-2‬
‭22630-25-7‬
‭22650-86-8‬
‭2276-90-6‬
‭22788-19-8‬
‭2280-89-9‬
‭22818-40-2‬
‭22832-87-7‬
‭22839-47-0‬
‭22871-58-5‬
‭22888-70-6‬
‭22916-47-8‬
‭23031-32-5‬
‭23056-29-3‬
‭23067-13-2‬
‭23076-35-9‬
‭23089-26-1‬
‭23092-17-3‬
‭2315-02-8‬
‭2321-07-5‬
‭23239-51-2‬
‭23256-50-0‬
‭23288-49-5‬
‭23313-80-6‬
‭23325-78-2‬
‭23411-34-9‬
‭23515-45-9‬
‭23541-50-6‬
‭23580-89-4‬
‭23593-75-1‬
‭23680-84-4‬
‭23736-58-5‬
‭2387-23-7‬
‭2391-03-9‬
‭2392-39-4‬
‭23964-57-0‬
‭23964-58-1‬
‭23978-09-8‬
‭2398-96-1‬
‭2410-93-7‬
‭2424-62-6‬
‭24316-91-4‬
‭2433-97-8‬
‭24356-60-3‬
‭24356-66-9‬
‭2438-32-6‬
‭2438-80-4‬
‭24390-14-5‬
‭2440-22-4‬
‭2447-57-6‬
‭2451-01-6‬
‭246021-75-0
104227-86-3
‭24634-61-5‬
‭24683-26-9‬
‭246870-46-2‬
‭24729-96-2‬
‭24757-70-8‬
‭24868-20-0‬
‭24938-16-7‬
‭24939-16-0‬
‭24939-17-1‬
‭249561-98-6‬
‭25038-59-9‬
‭2508-79-4‬
‭25081-93-0‬
‭25122-46-7‬
‭25155-18-4‬
‭25212-88-8‬
‭252186-79-1‬
‭25301-02-4‬
‭25316-40-9‬
‭25322-68-3‬
‭25322-68-3‬
‭25322-68-3‬
‭25322-68-3‬
‭25322-68-3‬
‭25322-68-3‬
‭25322-68-3‬
‭25322-68-3‬
‭25322-68-3‬
‭25322-68-3‬
‭25322-68-3‬
‭25322-68-3‬
‭25322-68-3‬
‭25322-68-3‬
‭25322-68-3‬
‭25322-68-3‬
‭25332-39-2‬
‭25389-94-0‬
‭25451-15-4‬
‭25459-12-5‬
‭25496-72-4‬
‭25496-72-4‬
‭25507-04-4‬
‭25526-94-7‬
‭256-81-5‬
‭256-96-2‬
‭25640-14-6‬
‭2568-25-4‬
‭2576-92-3‬
‭25812-30-0‬
‭2586-89-9‬
‭25953-19-9‬
‭26027-38-3‬
‭26027-38-3‬
‭260779-88-2‬
‭26155-31-7‬
‭26159-34-2‬
‭26218-04-2‬
‭2623-33-8‬
‭264624-38-6‬
‭26545-74-4‬
‭26560-38-3‬
‭26570-10-5‬
‭26605-69-6‬
‭26675-46-7‬
‭2668-66-8‬
‭26807-65-8‬
‭26889-93-0‬
‭26921-17-5‬
‭27194-74-7
142-55-2‬
‭27244-64-0‬
‭27299-12-3‬
‭27397-31-1‬
‭27503-81-7‬
‭27511-79-1‬
‭27631-29-4‬
‭2773-92-4‬
‭27833-64-3‬
‭27912-14-7‬
‭2809-21-4‬
‭28328-53-2‬
‭28395-03-1‬
‭2848-96-6‬
‭28523-86-6‬
‭28657-80-9‬
‭28721-07-5‬
‭288-32-4‬
‭2886-65-9‬
‭28888-44-0‬
‭28910-89-6‬
‭28911-01-5‬
‭289626-41-1‬
‭28981-97-7‬
‭29039-00-7‬
‭29094-61-9‬
‭29110-48-3‬
‭29122-68-7‬
‭2919-66-6‬
‭2920-86-7‬
‭2921-57-5‬
‭29277-73-4‬
‭29342-05-0‬
‭2942-59-8‬
‭295328-72-2‬
‭2955-38-6‬
‭29560-58-5‬
‭2958-36-3‬
‭297-76-7‬
‭29702-43-0‬
‭29782-68-1‬
‭298-14-6‬
‭298-46-4‬
‭298-59-9‬
‭298-81-7‬
‭299-27-4‬
‭299-28-5‬
‭29975-16-4‬
‭3006-96-0‬
‭3006-96-0‬
‭30078-48-9‬
‭301-00-8‬
‭301359-05-7‬
‭302-79-4‬
‭303-25-3‬
‭303-26-4‬
‭303-81-1‬
‭303-97-9‬
‭303-98-0‬
‭303-98-0‬
‭304-20-1‬
‭305-03-3‬
‭30516-87-1‬
‭30536-19-7‬
‭3056-17-5‬
‭306-07-0‬
‭306-21-8‬
‭3060-50-2‬
‭30806-86-1‬
‭3081-61-6‬
‭3083-77-0‬
‭3086-91-7‬
‭3092-17-9‬
‭3093-35-4‬
‭3094-09-5‬
‭3105-68-8‬
‭31055-19-3‬
‭31112-62-6‬
‭3119-15-1‬
‭312-93-6‬
‭31251-41-9‬
‭31272-50-1‬
‭313-06-4‬
‭31430-19-0‬
‭31431-39-7‬
‭31431-39-7‬
‭3147-75-9‬
‭315-30-0‬
‭315-37-7‬
‭315-69-5‬
‭31565-12-5
85883-73-4‬
‭31565-12-5
85883-73-4‬
‭316-42-7‬
‭31677-93-7‬
‭318-98-9‬
‭31884-77-2‬
‭31884-77-2‬
‭3198-07-0‬
‭320-67-2‬
‭321571-07-7‬
‭3219-99-6‬
‭32222-06-3‬
‭3223-07-2‬
‭32500-19-9‬
‭3258-84-2‬
‭32634-68-7‬
‭32672-69-8‬
‭327-97-9‬
‭32778-08-8‬
‭32780-64-6‬
‭328385-86-0‬
‭32911-62-9‬
‭3294-96-0‬
‭32986-56-4‬
‭33032-12-1‬
‭33069-62-4‬
‭330838-52-3‬
‭33089-61-1‬
‭331-39-5‬
‭33125-97-2‬
‭3313-26-6‬
‭3313-27-7‬
‭331943-04-5‬
‭33286-22-5‬
‭33386-08-2‬
‭33401-94-4‬
‭33402-03-8‬
‭33419-42-0‬
‭33419-42-0‬
‭33434-24-1‬
‭33434-24-1‬
‭3344-12-5‬
‭334981-12-3‬
‭33564-31-7‬
‭33626-98-1‬
‭33754-49-3‬
‭338-98-7‬
‭3380-34-5‬
‭33817-09-3‬
‭3387-36-8‬
‭33996-58-6‬
‭34097-16-0‬
‭34156-56-4‬
‭34183-22-7‬
‭34195-34-1‬
‭343336-76-5‬
‭34381-68-5‬
‭344423-98-9‬
‭345-78-8‬
‭3454-96-4‬
‭34552-83-5‬
‭3458-28-4‬
‭3464-71-9‬
‭3468-01-7‬
‭3485-62-9‬
‭3505-38-2‬
‭351329-88-9‬
‭35180-01-9‬
‭35189-28-7‬
‭3521-62-8‬
‭3533-97-9‬
‭35380-71-3‬
‭3546-41-6‬
‭356-12-7‬
‭35607-66-0‬
‭3564-73-6‬
‭3569-10-6‬
‭35708-82-8‬
‭35888-94-9‬
‭35891-93-1‬
‭359-83-1‬
‭35944-74-2
36557-22-9‬
‭3598-37-6‬
‭3599-32-4‬
‭360-70-3‬
‭3600-87-1‬
‭362472-81-9‬
‭36282-47-0‬
‭363-24-6‬
‭36322-90-4‬
‭364-98-7‬
‭3641-08-5‬
‭36589-29-4‬
‭366-70-1‬
‭3663-80-7‬
‭36653-82-4‬
‭36735-22-5‬
‭36791-04-5‬
‭3681-93-4‬
‭36861-47-9‬
‭3687-18-1‬
‭3687-45-4‬
‭3688-65-1‬
‭3704-09-4‬
‭37148-49-5‬
‭3717-88-2‬
‭37209-23-7‬
‭37296-80-3‬
‭37321-62-3‬
‭3736-81-0‬
‭37517-28-5‬
‭37661-08-8‬
‭3778-73-2‬
‭378-44-9‬
‭37883-00-4‬
‭379-79-3‬
‭37945-06-5‬
‭3801-06-7‬
‭38083-17-9‬
‭3810-74-0‬
‭3810-80-8‬
‭3818-50-6‬
‭3819-00-9‬
‭38194-50-2‬
‭382-67-2‬
‭38260-01-4‬
‭38304-91-5‬
‭38363-32-5‬
‭383907-36-6‬
‭3847-29-8‬
‭38562-01-5‬
‭3858-89-7‬
‭38821-49-7‬
‭38849-14-8‬
‭38861-78-8‬
‭389-08-2‬
‭3902-71-4‬
‭39025-23-5‬
‭391860-73-4‬
‭39236-46-9‬
‭393-11-3‬
‭393-12-4‬
‭39382-08-6‬
‭396-01-0‬
‭3963-95-9‬
‭3967-32-6‬
‭3978-86-7‬
‭39831-55-5‬
‭39925-19-4‬
‭40163-56-2‬
‭40188-45-2‬
‭40246-10-4‬
‭4027-64-9‬
‭404-86-4‬
‭4065-45-6‬
‭4070-80-8‬
‭40828-46-4‬
‭4093-29-2‬
‭4093-31-6‬
‭40957-83-3‬
‭4097-22-7‬
‭41093-60-1‬
‭41100-52-1‬
‭4121-40-8‬
‭41261-71-6‬
‭41340-25-4‬
‭41354-29-4‬
‭41372-02-5‬
‭41372-08-1‬
‭41372-20-7‬
‭41444-62-6‬
‭41575-94-4‬
‭415973-05-6‬
‭41621-49-2‬
‭41639-83-2‬
‭4180-23-8‬
‭42017-89-0‬
‭42019-78-3‬
‭42036-65-7‬
‭4205-90-7‬
‭4205-91-8‬
‭42057-22-7‬
‭42200-33-9‬
‭423-55-2‬
‭42461-84-7‬
‭42540-40-9‬
‭426-13-1‬
‭427-49-6‬
‭4271-30-1‬
‭4291-63-8‬
‭42924-53-8‬
‭42971-09-5‬
‭4300-43-0‬
‭43021-45-0‬
‭4310-35-4‬
‭43109-77-9‬
‭43200-80-2
‭43200-96-0‬
‭43210-67-9‬
‭4330-99-8‬
‭433289-83-9‬
‭4335-77-7‬
‭434-07-1‬
‭434-22-0‬
‭4342-03-4‬
‭437-38-7‬
‭438-41-5‬
‭438-59-5‬
‭439-14-5‬
‭440-17-5‬
‭440124-96-9‬
‭4424-45-7‬
‭443-48-1‬
‭4441-63-8‬
‭446-72-0‬
‭446-86-6‬
‭4465-65-0‬
‭4475-24-5‬
‭44830-55-9‬
‭4499-40-5‬
‭4504-87-4‬
‭4504-88-5‬
‭4504-96-5‬
‭45127-11-5‬
‭452-35-7‬
‭455-14-1‬
‭456-59-7‬
‭4562-36-1‬
‭457071-73-7‬
‭458-37-7‬
‭461-58-5‬
‭461-82-5‬
‭4618-18-2‬
‭46348-61-2‬
‭464-49-3‬
‭465-65-6‬
‭4656-86-4‬
‭467-02-7‬
‭467-13-0‬
‭4682-36-4‬
‭4691-65-0‬
‭470-82-6‬
‭471-34-1‬
‭474-86-2‬
‭4759-48-2‬
‭477884-78-9‬
‭479-18-5‬
‭479-91-4‬
‭479065-02-6‬
‭47931-85-1‬
‭480-19-3‬
‭480-30-8‬
‭482-36-0‬
‭483-63-6‬
‭485-72-3‬
‭486-66-8‬
‭4880-92-6‬
‭491-80-5‬
‭4921-49-7‬
‭494-19-9‬
‭4940-11-8‬
‭49562-28-9‬
‭496-76-4‬
‭49697-38-3‬
‭497-19-8‬
‭49745-95-1‬
‭498-07-7‬
‭50-02-2‬
‭50-03-3‬
‭50-04-4‬
‭50-06-6‬
‭50-07-7‬
‭50-11-3‬
‭50-12-4‬
‭50-13-5‬
‭50-14-6‬
‭50-21-5‬
‭50-23-7‬
‭50-24-8‬
‭50-27-1‬
‭50-33-9‬
‭50-34-0‬
‭50-35-1‬
‭50-37-3‬
‭50-41-9‬
‭50-45-3‬
‭50-50-0‬
‭50-52-2‬
‭50-55-5‬
‭50-56-6‬
‭50-57-7‬
‭50-58-8‬
‭50-63-5‬
‭50-69-1‬
‭50-70-4‬
‭50-76-0‬
‭50-78-2‬
‭50-81-7‬
‭50-89-5‬
‭50-91-9‬
‭50-99-7‬
‭500-64-1‬
‭5006-66-6‬
‭50293-90-8‬
‭504-63-2‬
‭50468-56-9‬
‭50587-95-6‬
‭506-52-5‬
‭50647-08-0‬
‭50650-75-4‬
‭50679-08-8‬
‭50700-72-6‬
‭508-54-3‬
‭508-99-6‬
‭50890-83-0‬
‭50978-11-5‬
‭51-05-8‬
‭51-15-0‬
‭51-21-8‬
‭51-30-9‬
‭51-42-3‬
‭51-48-9‬
‭51-52-5‬
‭51-56-9‬
‭51-57-0‬
‭51-60-5‬
‭51-63-8‬
‭51-83-2‬
‭51-98-9‬
‭51022-69-6‬
‭51022-70-9‬
‭51023-56-4‬
‭5104-49-4‬
‭51333-22-3‬
‭514-36-3‬
‭514-65-8‬
‭51481-61-9‬
‭5171-37-9‬
‭51773-92-3‬
‭51781-21-6‬
‭51952-41-1‬
‭51997-51-4‬
‭52-01-7‬
‭52-21-1‬
‭52-24-4‬
‭52-49-3‬
‭52-67-5‬
‭52-68-6‬
‭52-76-6‬
‭52-86-8‬
‭520-18-3‬
‭520-27-4‬
‭520-36-5‬
‭520-45-6‬
‭521-78-8‬
‭522-48-5‬
‭5220-02-0‬
‭52239-63-1‬
‭523-87-5‬
‭52329-60-9‬
‭52490-15-0‬
‭525-61-1‬
‭52605-52-4‬
‭5262-10-2‬
‭52699-48-6‬
‭527-75-3‬
‭5270-74-6‬
‭528-58-5‬
‭529-34-0‬
‭529-59-9‬
‭53-03-2‬
‭53-03-2‬
‭53-16-7‬
‭53-19-0‬
‭53-21-4‬
‭53-36-1‬
‭53-39-4‬
‭53-46-3‬
‭53-60-1‬
‭53-86-1‬
‭530-43-8‬
‭530-43-8‬
‭530-43-8‬
‭53016-31-2‬
‭5308-25-8‬
‭53152-21-9‬
‭53179-09-2‬
‭532-03-6‬
‭532-32-1‬
‭532-76-3‬
‭53242-88-9‬
‭5333-42-6‬
‭53499-40-4‬
‭535-80-8‬
‭536-33-4‬
‭536-43-6‬
‭537-29-1‬
‭537-55-3‬
‭5370-01-4‬
‭53716-49-7‬
‭53716-50-0‬
‭53746-45-5‬
‭53885-35-1‬
‭539-03-7‬
‭5391-52-6‬
‭53933-60-1‬
‭53956-04-0‬
‭53990-51-5‬
‭54-21-7‬
‭54-31-9‬
‭54-36-4‬
‭54-42-2‬
‭54-62-6‬
‭54-64-8‬
‭54-71-7‬
‭54-85-3‬
‭540-10-3‬
‭54024-17-8‬
‭54024-22-5‬
‭54048-10-1‬
‭54048-10-1‬
‭541-15-1‬
‭5411-22-3‬
‭54143-56-5‬
‭54143-57-6‬
‭54197-66-9‬
‭54328-33-5‬
‭54350-48-0‬
‭54396-44-0‬
‭544-63-8‬
‭54527-84-3‬
‭5454-28-4‬
‭546-88-3‬
‭546-93-0‬
‭54643-79-7‬
‭5466-77-3‬
‭54707-71-0‬
‭5471-51-2‬
‭54749-91-6‬
‭54779-58-7‬
‭548-62-9‬
‭548-73-2‬
‭549-18-8‬
‭5490-27-7‬
‭54965-21-8‬
‭54965-24-1‬
‭55-06-6‬
‭55-56-1‬
‭55-63-0‬
‭55-86-7‬
‭550-83-4‬
‭550-99-2‬
‭55011-89-7‬
‭55028-72-3‬
‭55079-83-9‬
‭5508-58-7‬
‭551-16-6‬
‭55134-13-9‬
‭552-63-6‬
‭552-66-9‬
‭552-94-3‬
‭55268-74-1‬
‭55297-95-5‬
‭55297-96-6‬
‭553-08-2‬
‭5534-09-8‬
‭5538-41-0‬
‭554-13-2‬
‭554-57-4‬
‭554-92-7‬
‭55453-87-7‬
‭5550-12-9‬
‭55557-30-7‬
‭55589-62-3‬
‭556-27-4‬
‭5579-84-0‬
‭5586-89-0‬
‭5593-20-4‬
‭55981-09-4‬
‭56-12-2‬
‭56-29-1‬
‭56-40-6‬
‭56-41-7‬
‭56-45-1‬
‭56-47-3‬
‭56-53-1‬
‭56-75-7‬
‭56-81-5‬
‭56-85-9‬
‭56-86-0‬
‭56-89-3‬
‭56-92-8‬
‭56-94-0‬
‭56-95-1‬
‭56038-13-2‬
‭5608-13-9‬
‭561-78-4‬
‭5611-51-8‬
‭56124-62-0‬
‭56177-80-1‬
‭56180-94-0‬
‭562-09-4‬
‭562-10-7‬
‭56211-40-6‬
‭56238-63-2‬
‭56390-09-1‬
‭56391-57-2‬
‭56392-14-4‬
‭56392-17-7‬
‭56767-76-1‬
‭56796-20-4‬
‭568-72-9‬
‭56862-28-3‬
‭57-09-0‬
‭57-10-3‬
‭57-11-4‬
‭57-13-6‬
‭57-29-4‬
‭57-41-0‬
‭57-43-2‬
‭57-48-7‬
‭57-50-1‬
‭57-53-4‬
‭57-55-6‬
‭57-63-6‬
‭57-64-7‬
‭57-66-9‬
‭57-68-1‬
‭57-83-0‬
‭57-85-2‬
‭57-87-4‬
‭57-88-5‬
‭57-96-5‬
‭57041-67-5‬
‭57059-62-8‬
‭571-92-6‬
‭57109-90-7‬
‭5714-00-1‬
‭5714-73-8‬
‭57268-33-4‬
‭57282-49-2‬
‭57327-92-1‬
‭573691-09-5‬
‭574-42-5‬
‭5740-62-5‬
‭5743-28-2‬
‭5743-30-6‬
‭5743-49-7‬
‭57432-61-8‬
‭57524-89-7‬
‭577-04-0‬
‭577-11-7‬
‭577953-88-9‬
‭577953-88-9‬
‭578-95-0‬
‭57817-89-7‬
‭57852-57-0‬
‭5786-21-0‬
‭5786-21-0‬
‭579-56-6‬
‭5793-89-5‬
‭5794-13-8‬
‭58-08-2‬
‭58-08-2‬
‭58-14-0‬
‭58-18-4‬
‭58-20-8‬
‭58-22-0‬
‭58-25-3‬
‭58-27-5‬
‭58-28-6‬
‭58-32-2‬
‭58-33-3‬
‭58-39-9‬
‭58-54-8‬
‭58-55-9‬
‭58-55-9‬
‭58-56-0‬
‭58-61-7‬
‭58-71-9‬
‭58-85-5‬
‭58-86-6‬
‭58-89-9‬
‭58-93-5‬
‭58-94-6‬
‭58-96-8‬
‭58005-18-8‬
‭58069-82-2‬
‭58073-59-9‬
‭58109-34-5‬
‭582-25-2‬
‭58207-19-5‬
‭583-39-1‬
‭584-08-7‬
‭58456-86-3‬
‭585-88-6‬
‭58543-16-1‬
‭58543-17-2‬
‭58551-69-2‬
‭587-23-5‬
‭5870-29-1‬
‭5872-08-2‬
‭5872-08-2‬
‭5874-97-5‬
‭5875-06-9‬
‭58786-99-5‬
‭589-29-7‬
‭5892-10-4‬
‭58962-34-8‬
‭5897-16-5
‭59-05-2‬
‭59-05-2‬
‭59-06-3‬
‭59-23-4‬
‭59-30-3‬
‭59-33-6‬
‭59-40-5‬
‭59-51-8‬
‭59-63-2‬
‭59-66-5‬
‭59-67-6‬
‭59-87-0‬
‭59-92-7‬
‭59-97-2‬
‭590-46-5‬
‭590-63-6‬
‭59017-64-0‬
‭5908-99-6‬
‭591-27-5‬
‭59122-46-2‬
‭592-88-1‬
‭59277-89-3‬
‭5928-51-8‬
‭59333-67-4‬
‭59467-70-8‬
‭59467-96-8‬
‭595-33-5‬
‭5958-05-4‬
‭596-09-8‬
‭596-51-0‬
‭5965-13-9‬
‭59702-31-7‬
‭59729-32-7‬
‭5985-38-6‬
‭59865-13-3‬
‭5987-82-6‬
‭5989-81-1‬
‭599-04-2‬
‭599-79-1‬
‭60-00-4‬
‭60-12-8‬
‭60-18-4‬
‭60-27-5‬
‭60-31-1‬
‭60-32-2‬
‭60-46-8‬
‭60-56-0‬
‭60-80-0‬
‭60-99-1‬
‭6001-64-5‬
‭6001-93-0‬
‭6004-24-6‬
‭6009-81-0‬
‭60142-96-3‬
‭60166-93-0‬
‭60166-98-5‬
‭6019-06-3‬
‭60200-06-8‬
‭603-41-8‬
‭603-50-9‬
‭60372-77-2‬
‭604-75-1‬
‭6055-19-2‬
‭60561-17-3‬
‭606-17-7‬
‭60719-84-8‬
‭60729-91-1‬
‭608-07-1‬
‭608-66-2‬
‭60925-61-3‬
‭61-12-1‬
‭61-16-5‬
‭61-19-8‬
‭61-25-6‬
‭61-68-7‬
‭61-75-6‬
‭61-76-7‬
‭61-78-9‬
‭61-90-5‬
‭6100-05-6‬
‭6101-15-5‬
‭6106-04-3‬
‭6106-24-7‬
‭6112-76-1‬
‭6119-47-7‬
‭6119-70-6‬
‭612069-28-0‬
‭612069-30-4‬
‭61270-78-8‬
‭6130-64-9‬
‭61318-91-0‬
‭6132-04-3‬
‭61336-70-7‬
‭61337-68-6‬
‭6138-23-4‬
‭6138-79-0‬
‭614-39-1‬
‭614-80-2‬
‭6151-25-3‬
‭6151-30-0‬
‭6153-56-6‬
‭6153-64-6‬
‭6155-57-3‬
‭6159-55-3‬
‭616-91-1‬
‭61643-23-0‬
‭61718-82-9‬
‭61758-77-8‬
‭617677-53-9‬
‭61791-12-6‬
‭618-88-2‬
‭61825-94-3‬
‭6184-17-4‬
‭61848-66-6‬
‭61849-14-7‬
‭6190-39-2‬
‭6197-30-4‬
‭62-31-7‬
‭62-44-2‬
‭62-44-2‬
‭62-51-1‬
‭62-54-4‬
‭62-73-7‬
‭62-90-8‬
‭62013-04-1‬
‭6202-23-9‬
‭6209-17-2‬
‭6211-15-0‬
‭6232-88-8‬
‭6233-83-6‬
‭62357-86-2‬
‭62391-99-5‬
‭624742-53-6‬
‭625120-81-2‬
‭62571-86-2‬
‭62749-46-6‬
‭6284-40-8‬
‭62893-19-0‬
‭6292-59-7‬
‭6292-91-7‬
‭63-37-6‬
‭63-42-3‬
‭63-45-6‬
‭63-68-3‬
‭63-74-1‬
‭63-74-1‬
‭63-91-2‬
‭63-92-3‬
‭630-56-8‬
‭630-93-3‬
‭6326-19-8‬
‭63279-13-0‬
‭63283-36-3‬
‭633-65-8‬
‭63516-30-3‬
‭63547-24-0‬
‭636-21-5‬
‭636-46-4‬
‭6363-53-7‬
‭63659-19-8‬
‭63690-56-2‬
‭637-07-0‬
‭637-32-1‬
‭637-58-1‬
‭63705-03-3‬
‭6381-59-5‬
‭6381-91-5‬
‭6381-92-6‬
‭6385-02-0‬
‭639-46-3‬
‭639-81-6‬
‭63968-75-2‬
‭6398-98-7‬
‭64-17-5‬
‭64-17-5‬
‭64-18-6‬
‭64-19-7‬
‭64-72-2‬
‭64-73-3‬
‭64-75-5‬
‭64-77-7‬
‭64-86-8‬
‭64019-93-8‬
‭64228-81-5‬
‭643-22-1‬
‭64372-56-1‬
‭64461-82-1‬
‭64485-93-4‬
‭64490-92-2‬
‭645-05-6‬
‭645-43-2‬
‭64519-82-0‬
‭6452-73-9‬
‭64544-07-6‬
‭64744-50-9‬
‭64806-05-9‬
‭64849-39-4‬
‭64872-77-1‬
‭6493-05-6‬
‭65-19-0‬
‭65-28-1‬
‭65-29-2‬
‭65-45-2‬
‭65-49-6‬
‭65-71-4‬
‭65-85-0‬
‭651-55-8‬
‭652-67-5‬
‭65214-86-0‬
‭65277-42-1‬
‭6533-00-2‬
‭6533-68-2‬
‭6537-80-0‬
‭6538-82-5‬
‭654-62-6‬
‭65473-13-4‬
‭65473-14-5‬
‭6556-12-3‬
‭65652-44-0‬
‭657-27-2‬
‭65872-41-5‬
‭65899-73-2‬
‭6591-63-5‬
‭66-22-8‬
‭66-76-2‬
‭66-84-2‬
‭66066-76-0‬
‭66067-44-5‬
‭66085-59-4‬
‭66104-23-2‬
‭66108-95-0‬
‭66215-27-8‬
‭66258-76-2‬
‭66309-69-1‬
‭66335-38-4‬
‭66357-59-3‬
‭66375-96-0‬
‭66424-46-2‬
‭665-66-7‬
‭66575-29-9‬
‭66592-87-8‬
‭66734-13-2‬
‭66774-02-5‬
‭66845-32-7‬
‭66852-54-8‬
‭66900-68-3‬
‭66985-17-9‬
‭67-03-8‬
‭67-20-9‬
‭67-43-6‬
‭67-45-8‬
‭67-48-1‬
‭67-52-7‬
‭67-56-1‬
‭67-63-0‬
‭67-64-1‬
‭67-68-5‬
‭67-71-0‬
‭67-73-2‬
‭67-78-7‬
‭67-92-5‬
‭67-96-9‬
‭67-97-0‬
‭67-97-0‬
‭6700-17-0‬
‭6700-34-1‬
‭671225-26-6‬
‭672-87-7‬
‭67227-57-0‬
‭67244-90-0‬
‭67392-87-4‬
‭6740-87-0‬
‭67416-61-9‬
‭67587-24-0‬
‭67775-97-7‬
‭67879-58-7‬
‭67915-31-5‬
‭67950-95-2‬
‭67987-08-0‬
‭68-19-9‬
‭68-22-4‬
‭68-35-9‬
‭68-41-7‬
‭68-94-0‬
‭6802-95-5‬
‭68291-97-4‬
‭68302-57-8‬
‭6835-16-1‬
‭68373-14-8‬
‭68401-81-0‬
‭68424-04-4‬
‭68432-95-1‬
‭68439-50-9‬
‭68475-42-3‬
‭68506-86-5‬
‭68513-95-1‬
‭68524-30-1‬
‭6854-40-6‬
‭68559-55-7‬
‭68559-60-4‬
‭68583-51-7‬
‭68693-11-8‬
‭68728-47-2‬
‭68797-31-9‬
‭68844-77-9‬
‭68890-66-4‬
‭6893-02-3‬
‭6899-03-2‬
‭68990-53-4‬
‭68990-54-5‬
‭69-09-0‬
‭69-52-3‬
‭69-53-4‬
‭69-57-8‬
‭69-65-8‬
‭69-72-7‬
‭69-72-7‬
‭6915-15-7‬
‭693793-53-2‬
‭69427-46-9‬
‭69430-24-6‬
‭69430-24-6‬
‭69430-24-6‬
‭69536-71-6‬
‭696-23-1‬
‭69617-84-1‬
‭6963-56-0‬
‭69655-05-6‬
‭69655-05-6‬
‭69712-56-7‬
‭6974-32-9‬
‭698-87-3‬
‭69815-49-2‬
‭6989-98-6‬
‭6994-25-8‬
‭70-00-8‬
‭70-18-8‬
‭70-30-4‬
‭70-47-3‬
‭70-55-3‬
‭70024-40-7‬
‭70059-30-2‬
‭70142-34-6‬
‭70172-96-2‬
‭702-79-4‬
‭70288-86-7‬
‭70356-03-5‬
‭70356-09-1‬
‭70381-75-8‬
‭70458-96-7‬
‭70476-82-3‬
‭7048-04-6‬
‭7054-25-3‬
‭707-36-8‬
‭707-37-9‬
‭7077-05-6‬
‭70797-11-4‬
‭7081-44-9‬
‭7081-53-0‬
‭7084-24-4‬
‭70844-48-3‬
‭70879-28-6‬
‭70918-74-0‬
‭71-00-1‬
‭71-23-8‬
‭71-30-7‬
‭71-36-3‬
‭71-41-0‬
‭71-58-9‬
‭71-63-6‬
‭71-68-1‬
‭71-81-8‬
‭71076-49-8‬
‭7111-76-4‬
‭71125-38-7‬
‭71138-97-1‬
‭7147-77-5‬
‭71539-52-1‬
‭71550-12-4‬
‭71610-00-9‬
‭71617-10-2‬
‭7177-48-2‬
‭7177-50-6‬
‭7179-49-9‬
‭719-59-5‬
‭71939-50-9‬
‭71939-51-0‬
‭71963-77-4‬
‭72-14-0‬
‭72-18-4‬
‭72-19-5‬
‭72-33-3‬
‭72-40-2‬
‭7206-76-0‬
‭721-50-6‬
‭72126-78-4‬
‭721958-72-1‬
‭7220-79-3‬
‭723-46-6‬
‭7235-40-7‬
‭7240-38-2‬
‭7246-14-2‬
‭72509-76-3‬
‭72559-06-9‬
‭7261-97-4‬
‭7280-37-7‬
‭72810-61-8‬
‭72822-01-6‬
‭72901-16-7‬
‭7291-41-0‬
‭72955-94-3‬
‭72956-09-3‬
‭73-05-2‬
‭73-22-3‬
‭73-24-5‬
‭73-31-4‬
‭73-32-5‬
‭73-40-5‬
‭73-48-3‬
‭73-49-4‬
‭7305-71-7‬
‭73101-64-1‬
‭73218-79-8‬
‭73310-10-8‬
‭73319-30-9‬
‭73334-07-3‬
‭73346-79-9‬
‭73590-58-6‬
‭7361-61-7‬
‭73771-04-7‬
‭738-70-5‬
‭73816-42-9‬
‭73851-70-4‬
‭73963-62-9‬
‭73963-72-1‬
‭74-79-3‬
‭74050-97-8‬
‭74103-07-4‬
‭7414-83-7‬
‭74381-53-6‬
‭74431-23-5‬
‭7446-20-2‬
‭7447-40-7‬
‭745-65-3‬
‭7460-12-0‬
‭74682-62-5‬
‭747-36-4‬
‭7481-88-1‬
‭7481-89-2‬
‭748812-53-5‬
‭7491-09-0‬
‭7492-31-1‬
‭7493-63-2‬
‭7493-78-9‬
‭74978-16-8‬
‭75-56-9‬
‭75067-66-2‬
‭7512-17-6‬
‭75128-73-3‬
‭7529-16-0‬
‭75330-75-5‬
‭7542-45-2‬
‭7549-33-9‬
‭754926-25-5‬
‭75607-67-9‬
‭75695-93-1‬
‭75706-12-6‬
‭75738-58-8‬
‭75755-10-1‬
‭7585-39-9‬
‭76-25-5‬
‭76-38-0‬
‭76-41-5‬
‭76-42-6‬
‭76-43-7‬
‭76-73-3‬
‭76-74-4‬
‭76-75-5‬
‭76-84-6‬
‭76-90-4‬
‭76-93-7‬
‭76009-37-5‬
‭76095-16-4‬
‭761460-08-6‬
‭76201-95-1‬
‭7632-00-0‬
‭76333-53-4‬
‭7643-75-6‬
‭7647-14-5‬
‭7647-15-6‬
‭76578-81-9
‭76584-70-8‬
‭766-92-7‬
‭7664-38-2‬
‭76801-85-9‬
‭76801-93-9‬
‭76801-93-9‬
‭7681-11-0‬
‭7681-14-3‬
‭7681-49-4‬
‭7681-57-4‬
‭7681-93-8‬
‭76811-98-8‬
‭7682-20-4‬
‭76824-16-3‬
‭76824-17-4‬
‭76824-35-6‬
‭7689-03-4‬
‭7695-91-2‬
‭76963-41-2‬
‭77-06-5‬
‭77-09-8‬
‭77-26-9‬
‭77-36-1‬
‭77-41-8‬
‭77-52-1‬
‭77-67-8‬
‭77-86-1‬
‭77-89-4‬
‭77-90-7‬
‭77-92-9‬
‭77-93-0‬
‭77-94-1‬
‭77-95-2‬
‭77326-96-6‬
‭77337-73-6‬
‭774239-80-4‬
‭7757-79-1‬
‭7757-82-6‬
‭7757-87-1‬
‭7758-11-4‬
‭7778-77-0‬
‭7782-63-0‬
‭7783-28-0‬
‭77883-43-3‬
‭7791-18-6‬
‭78-44-4‬
‭78-83-1‬
‭78-84-2‬
‭78-92-2‬
‭78-93-3‬
‭78110-38-0‬
‭78247-49-1‬
‭78266-06-5‬
‭78287-27-1‬
‭78415-72-2‬
‭78439-06-2‬
‭78628-80-5‬
‭78755-81-4‬
‭78964-85-9‬
‭79-09-4‬
‭79-20-9‬
‭79-81-2‬
‭79081-87-1‬
‭79088-29-2‬
‭791-28-6‬
‭79307-93-0‬
‭79350-10-0‬
‭79350-37-1‬
‭79517-01-4‬
‭79547-78-7‬
‭79559-97-0‬
‭79617-89-3‬
‭797-63-7‬
‭79794-75-5‬
‭79902-63-9‬
‭80-08-0‬
‭80-32-0‬
‭80-49-9‬
‭80-74-0‬
‭8000-73-5‬
‭8001-21-6‬
‭8001-22-7‬
‭8001-23-8‬
‭8001-25-0‬
‭8001-29-4‬
‭8001-30-7‬
‭8001-54-5‬
‭8001-69-2‬
‭8002-03-7‬
‭8002-43-5‬
‭8002-50-4‬
‭8002-74-2‬
‭8002-75-3‬
‭80047-24-1‬
‭8006-44-8‬
‭8006-54-0‬
‭8007-69-0‬
‭8008-74-0‬
‭80139-91-9‬
‭8016-13-5‬
‭8016-13-5‬
‭80223-99-0‬
‭8027-33-6‬
‭8031-42-3‬
‭8042-47-5
‬‭8012-95-1‬
‭80474-14-2‬
‭8049-47-6‬
‭8049-47-6‬
‭8050-81-5‬
‭8057-49-6‬
‭8061-52-7‬
‭8063-17-0‬
‭8067-24-1‬
‭8068-28-8‬
‭808-48-0‬
‭80875-07-6‬
‭80875-98-5‬
‭81-07-2‬
‭81-13-0‬
‭81-23-2‬
‭81-25-4‬
‭81-27-6‬
‭81-81-2‬
‭81025-04-9‬
‭81103-11-9‬
‭81103-11-9‬
‭81131-70-6‬
‭81161-17-3‬
‭81176-41-2‬
‭813-93-4‬
‭814-29-9‬
‭81403-68-1‬
‭81409-90-7‬
‭81886-51-3‬
‭82-07-5‬
‭821-48-7‬
‭82186-77-4‬
‭82240-09-3‬
‭82248-59-7‬
‭82410-32-0‬
‭82419-36-1‬
‭82419-52-1‬
‭82586-52-5‬
‭82586-55-8‬
‭82586-62-7‬
‭826-39-1‬
‭82626-48-0‬
‭82640-04-8‬
‭82717-96-2‬
‭82752-99-6‬
‭82768-85-2‬
‭82854-37-3‬
‭82857-39-4‬
‭829-74-3‬
‭83-01-2‬
‭83-12-5‬
‭83-43-2‬
‭83-46-5‬
‭83-73-8‬
‭83-88-5‬
‭834-28-6‬
‭83784-20-7‬
‭83857-96-9‬
‭83881-52-1‬
‭83915-83-7‬
‭83919-23-7‬
‭84-02-6‬
‭84-17-3‬
‭84-31-1‬
‭84-66-2‬
‭84-74-2‬
‭84-80-0‬
‭84057-84-1‬
‭84057-95-4‬
‭84082-34-8‬
‭84082-80-4‬
‭84163-13-3‬
‭84371-65-3‬
‭84467-94-7‬
‭84494-72-4‬
‭846-49-1‬
‭846-50-4‬
‭84604-14-8‬
‭84604-14-8‬
‭84604-20-6‬
‭84625-61-6‬
‭84650-60-2‬
‭84680-54-6‬
‭84696-11-7‬
‭84696-12-5‬
‭847-86-9‬
‭84776-26-1‬
‭849-55-8‬
‭849206-43-5‬
‭84929-41-9‬
‭849903-79-3‬
‭85325-12-8‬
‭853792-81-1‬
‭855300-09-3‬
‭85622-93-1‬
‭85650-52-8‬
‭85677-93-6‬
‭85721-33-1‬
‭86-34-0‬
‭86-35-1‬
‭86-74-8‬
‭86-98-6‬
‭860-22-0‬
‭86150-61-0‬
‭86386-73-4‬
‭86393-32-0‬
‭86393-33-1‬
‭86398-53-0‬
‭86541-74-4‬
‭86541-78-8‬
‭865792-18-3‬
‭86639-52-3‬
‭867-56-1‬
‭868-14-4‬
‭86850-72-8‬
‭869-24-9‬
‭87-08-1‬
‭87-33-2‬
‭87-67-2‬
‭87-69-4‬
‭87-81-0‬
‭87-89-8‬
‭87-99-0‬
‭870076-72-5‬
‭872-50-4‬
‭87233-62-3‬
‭87239-81-4‬
‭873310-28-2‬
‭873310-31-7‬
‭87333-19-5‬
‭87500-74-1‬
‭87619-83-8‬
‭87679-37-6‬
‭87691-88-1‬
‭877265-30-0‬
‭877265-33-3‬
‭87771-40-2‬
‭88-04-0‬
‭88-19-7‬
‭88-32-4‬
‭88122-99-0‬
‭88308-22-9‬
‭88495-63-0‬
‭88546-55-8‬
‭88637-37-0‬
‭887196-25-0‬
‭88889-14-9‬
‭88901-36-4‬
‭889443-20-3‬
‭89-24-7‬
‭89-25-8‬
‭89-57-6‬
‭89-65-6‬
‭89-83-8‬
‭89268-62-2‬
‭894-71-3‬
‭897-06-3‬
‭89786-04-9‬
‭89797-00-2‬
‭90-05-1‬
‭90-26-6‬
‭90-47-1‬
‭90-64-2‬
‭9000-11-7‬
‭9001-73-4‬
‭9001-75-6‬
‭9002-07-7‬
‭9002-60-2‬
‭9002-61-3‬
‭9002-88-4‬
‭9002-88-4‬
‭9002-89-5‬
‭9002-92-0‬
‭9002-92-0‬
‭9002-93-1‬
‭90028-20-9‬
‭9003-07-0‬
‭9003-11-6‬
‭9003-11-6‬
‭9003-11-6‬
‭9003-20-7‬
‭9003-27-4‬
‭9003-39-8‬
‭9003-39-8‬
‭9004-07-3‬
‭9004-32-4‬
‭9004-34-6‬
‭9004-34-6‬
‭9004-35-7‬
‭9004-36-8‬
‭9004-38-0‬
‭9004-54-0‬
‭9004-54-0‬
‭9004-54-0‬
‭9004-54-0‬
‭9004-54-0‬
‭9004-54-0‬
‭9004-54-0‬
‭9004-54-0‬
‭9004-54-0‬
‭9004-54-0‬
‭9004-54-0‬
‭9004-54-0‬
‭9004-57-3‬
‭9004-64-2‬
‭9004-65-3‬
‭9004-67-5‬
‭9004-95-9‬
‭9004-96-0‬
‭9004-98-2‬
‭9004-99-3‬
‭9004-99-3‬
‭90045-38-8‬
‭90045-47-9‬
‭9005-00-9‬
‭9005-00-9‬
‭9005-00-9‬
‭9005-64-5‬
‭9005-65-6‬
‭9005-66-7‬
‭9005-67-8‬
‭9007-48-1‬
‭9008-02-0‬
‭9008-30-4‬
‭9008-30-4‬
‭90082-75-0‬
‭90101-87-4‬
‭9012-72-0‬
‭9012-76-4‬
‭90147-43-6‬
‭9016-00-6‬
‭90244-84-1‬
‭90274-24-1‬
‭9031-11-2‬
‭90357-06-5‬
‭9041-08-1‬
‭9041-08-1‬
‭9041-08-1‬
‭9041-08-1‬
‭9041-08-1‬
‭9041-08-1‬
‭9041-08-1‬
‭9041-08-1‬
‭9041-08-1‬
‭9041-93-4‬
‭90457-65-1‬
‭9050-04-8‬
‭9050-31-1‬
‭90503-06-3‬
‭9051-29-0‬
‭90536-66-6‬
‭9063-38-1‬
‭9063-38-1‬
‭90729-43-4‬
‭9082-07-9‬
‭91-01-0‬
‭91-20-3‬
‭910138-96-4‬
‭911432-63-8‬
‭91224-69-0‬
‭91224-69-0‬
‭913258-34-1‬
‭91374-20-8‬
‭91722-21-3‬
‭91722-47-3‬
‭91832-40-5‬
‭91845-35-1‬
‭918903-20-5‬
‭92-13-7‬
‭92-51-3‬
‭92-55-7‬
‭92-61-5‬
‭92-84-2‬
‭920-66-1‬
‭921226-01-9
‭92134-98-0‬
‭92339-11-2‬
‭924663-38-7‬
‭92676-86-3‬
‭92841-53-7‬
‭92923-57-4‬
‭93-03-8‬
‭93-14-1‬
‭931-86-2‬
‭931-86-2‬
‭93106-60-6‬
‭93164-89-7‬
‭932033-57-3‬
‭932033-58-4‬
‭93329-92-1‬
‭93413-90-2‬
‭93479-97-1‬
‭93594-39-9‬
‭93957-55-2‬
‭94-09-7‬
‭94-13-3‬
‭94-20-2‬
‭94-25-7‬
‭94-26-8‬
‭94-62-2‬
‭941-37-7‬
‭94279-95-5‬
‭94659-47-9‬
‭94749-08-3‬
‭95-25-0‬
‭95-85-2‬
‭95153-31-4‬
‭95233-18-4‬
‭95382-33-5‬
‭95399-71-6‬
‭956-03-6‬
‭956-90-1‬
‭959-24-0‬
‭96-20-8‬
‭96-26-4‬
‭96-82-2
‭96020-91-6‬
‭96038-87-8‬
‭963-39-3‬
‭96302-71-7‬
‭96605-66-2‬
‭968-81-0‬
‭968-93-4‬
‭96829-58-2‬
‭96946-42-8‬
‭97-53-0‬
‭97-59-6‬
‭97-77-8‬
‭97240-79-4‬
‭97281-15-7‬
‭97281-47-5‬
‭97281-51-1‬
‭97468-37-6‬
‭97540-22-2‬
‭976-71-6‬
‭979-32-8‬
‭979-92-0‬
‭97928-18-2‬
‭97963-62-7‬
‭98-50-0‬
‭98-82-8‬
‭98-89-5‬
‭98-92-0‬
‭98-96-4‬
‭980-71-2‬
‭98319-26-7‬
‭98418-47-4‬
‭987-24-6‬
‭98809-58-6‬
‭989-51-5‬
‭99-50-3‬
‭99-66-1‬
‭99-67-2‬
‭99-76-3‬
‭99-96-7‬
‭990-73-8‬
‭99010-09-0‬
‭99010-24-9‬
‭99010-63-6‬
‭99010-64-7‬
‭99011-02-6‬
‭99016-42-9
‭992-62-1‬
‭99294-93-6‬
‭99300-78-4‬
‭99469-99-5‬
‭99614-02-5‬

